2016-10-17 12:03:14 startup archives unpack
2016-10-17 12:03:15 upgrade init-system-helpers:all 1.29ubuntu2 1.29ubuntu3
2016-10-17 12:03:15 status half-configured init-system-helpers:all 1.29ubuntu2
2016-10-17 12:03:15 status unpacked init-system-helpers:all 1.29ubuntu2
2016-10-17 12:03:15 status half-installed init-system-helpers:all 1.29ubuntu2
2016-10-17 12:03:15 status triggers-pending man-db:amd64 2.7.5-1
2016-10-17 12:03:15 status half-installed init-system-helpers:all 1.29ubuntu2
2016-10-17 12:03:15 status unpacked init-system-helpers:all 1.29ubuntu3
2016-10-17 12:03:15 status unpacked init-system-helpers:all 1.29ubuntu3
2016-10-17 12:03:15 trigproc man-db:amd64 2.7.5-1 <none>
2016-10-17 12:03:15 status half-configured man-db:amd64 2.7.5-1
2016-10-17 12:03:15 status installed man-db:amd64 2.7.5-1
2016-10-17 12:03:15 startup packages configure
2016-10-17 12:03:15 configure init-system-helpers:all 1.29ubuntu3 <none>
2016-10-17 12:03:15 status unpacked init-system-helpers:all 1.29ubuntu3
2016-10-17 12:03:15 status half-configured init-system-helpers:all 1.29ubuntu3
2016-10-17 12:03:15 status installed init-system-helpers:all 1.29ubuntu3
2016-10-17 12:03:16 startup archives unpack
2016-10-17 12:03:16 upgrade init:amd64 1.29ubuntu2 1.29ubuntu3
2016-10-17 12:03:16 status half-configured init:amd64 1.29ubuntu2
2016-10-17 12:03:16 status unpacked init:amd64 1.29ubuntu2
2016-10-17 12:03:16 status half-installed init:amd64 1.29ubuntu2
2016-10-17 12:03:16 status half-installed init:amd64 1.29ubuntu2
2016-10-17 12:03:16 status unpacked init:amd64 1.29ubuntu3
2016-10-17 12:03:16 status unpacked init:amd64 1.29ubuntu3
2016-10-17 12:03:16 startup packages configure
2016-10-17 12:03:16 configure init:amd64 1.29ubuntu3 <none>
2016-10-17 12:03:16 status unpacked init:amd64 1.29ubuntu3
2016-10-17 12:03:16 status half-configured init:amd64 1.29ubuntu3
2016-10-17 12:03:16 status installed init:amd64 1.29ubuntu3
2016-10-17 12:03:16 startup archives unpack
2016-10-17 12:03:16 upgrade libsystemd0:amd64 229-4ubuntu8 229-4ubuntu11
2016-10-17 12:03:16 status triggers-pending libc-bin:amd64 2.23-0ubuntu3
2016-10-17 12:03:16 status half-configured libsystemd0:amd64 229-4ubuntu8
2016-10-17 12:03:16 status unpacked libsystemd0:amd64 229-4ubuntu8
2016-10-17 12:03:16 status half-installed libsystemd0:amd64 229-4ubuntu8
2016-10-17 12:03:16 status half-installed libsystemd0:amd64 229-4ubuntu8
2016-10-17 12:03:16 status unpacked libsystemd0:amd64 229-4ubuntu11
2016-10-17 12:03:16 status unpacked libsystemd0:amd64 229-4ubuntu11
2016-10-17 12:03:16 trigproc libc-bin:amd64 2.23-0ubuntu3 <none>
2016-10-17 12:03:16 status half-configured libc-bin:amd64 2.23-0ubuntu3
2016-10-17 12:03:16 status installed libc-bin:amd64 2.23-0ubuntu3
2016-10-17 12:03:16 startup packages configure
2016-10-17 12:03:16 configure libsystemd0:amd64 229-4ubuntu11 <none>
2016-10-17 12:03:16 status triggers-pending libc-bin:amd64 2.23-0ubuntu3
2016-10-17 12:03:16 status unpacked libsystemd0:amd64 229-4ubuntu11
2016-10-17 12:03:16 status half-configured libsystemd0:amd64 229-4ubuntu11
2016-10-17 12:03:16 status installed libsystemd0:amd64 229-4ubuntu11
2016-10-17 12:03:16 trigproc libc-bin:amd64 2.23-0ubuntu3 <none>
2016-10-17 12:03:16 status half-configured libc-bin:amd64 2.23-0ubuntu3
2016-10-17 12:03:16 status installed libc-bin:amd64 2.23-0ubuntu3
2016-10-17 12:03:16 startup archives unpack
2016-10-17 12:03:16 upgrade libpam-systemd:amd64 229-4ubuntu8 229-4ubuntu11
2016-10-17 12:03:16 status half-configured libpam-systemd:amd64 229-4ubuntu8
2016-10-17 12:03:16 status unpacked libpam-systemd:amd64 229-4ubuntu8
2016-10-17 12:03:16 status half-installed libpam-systemd:amd64 229-4ubuntu8
2016-10-17 12:03:16 status triggers-pending man-db:amd64 2.7.5-1
2016-10-17 12:03:16 status half-installed libpam-systemd:amd64 229-4ubuntu8
2016-10-17 12:03:16 status unpacked libpam-systemd:amd64 229-4ubuntu11
2016-10-17 12:03:16 status unpacked libpam-systemd:amd64 229-4ubuntu11
2016-10-17 12:03:16 upgrade systemd:amd64 229-4ubuntu8 229-4ubuntu11
2016-10-17 12:03:16 status half-configured systemd:amd64 229-4ubuntu8
2016-10-17 12:03:16 status unpacked systemd:amd64 229-4ubuntu8
2016-10-17 12:03:16 status half-installed systemd:amd64 229-4ubuntu8
2016-10-17 12:03:16 status triggers-pending ureadahead:amd64 0.100.0-19
2016-10-17 12:03:16 status triggers-pending dbus:amd64 1.10.6-1ubuntu3
2016-10-17 12:03:17 status triggers-pending dbus:amd64 1.10.6-1ubuntu3
2016-10-17 12:03:17 status half-installed systemd:amd64 229-4ubuntu8
2016-10-17 12:03:17 status unpacked systemd:amd64 229-4ubuntu11
2016-10-17 12:03:17 status unpacked systemd:amd64 229-4ubuntu11
2016-10-17 12:03:17 trigproc man-db:amd64 2.7.5-1 <none>
2016-10-17 12:03:17 status half-configured man-db:amd64 2.7.5-1
2016-10-17 12:03:18 status installed man-db:amd64 2.7.5-1
2016-10-17 12:03:18 trigproc ureadahead:amd64 0.100.0-19 <none>
2016-10-17 12:03:18 status half-configured ureadahead:amd64 0.100.0-19
2016-10-17 12:03:18 status installed ureadahead:amd64 0.100.0-19
2016-10-17 12:03:18 trigproc dbus:amd64 1.10.6-1ubuntu3 <none>
2016-10-17 12:03:18 status half-configured dbus:amd64 1.10.6-1ubuntu3
2016-10-17 12:03:18 status installed dbus:amd64 1.10.6-1ubuntu3
2016-10-17 12:03:18 startup packages configure
2016-10-17 12:03:18 configure systemd:amd64 229-4ubuntu11 <none>
2016-10-17 12:03:18 status unpacked systemd:amd64 229-4ubuntu11
2016-10-17 12:03:18 status unpacked systemd:amd64 229-4ubuntu11
2016-10-17 12:03:18 status unpacked systemd:amd64 229-4ubuntu11
2016-10-17 12:03:18 status unpacked systemd:amd64 229-4ubuntu11
2016-10-17 12:03:18 status unpacked systemd:amd64 229-4ubuntu11
2016-10-17 12:03:18 status unpacked systemd:amd64 229-4ubuntu11
2016-10-17 12:03:18 status unpacked systemd:amd64 229-4ubuntu11
2016-10-17 12:03:18 status unpacked systemd:amd64 229-4ubuntu11
2016-10-17 12:03:18 status unpacked systemd:amd64 229-4ubuntu11
2016-10-17 12:03:18 status unpacked systemd:amd64 229-4ubuntu11
2016-10-17 12:03:18 status unpacked systemd:amd64 229-4ubuntu11
2016-10-17 12:03:18 status unpacked systemd:amd64 229-4ubuntu11
2016-10-17 12:03:18 status unpacked systemd:amd64 229-4ubuntu11
2016-10-17 12:03:18 status unpacked systemd:amd64 229-4ubuntu11
2016-10-17 12:03:18 status unpacked systemd:amd64 229-4ubuntu11
2016-10-17 12:03:18 status unpacked systemd:amd64 229-4ubuntu11
2016-10-17 12:03:18 status unpacked systemd:amd64 229-4ubuntu11
2016-10-17 12:03:18 status half-configured systemd:amd64 229-4ubuntu11
2016-10-17 12:03:19 status installed systemd:amd64 229-4ubuntu11
2016-10-17 12:03:19 startup archives unpack
2016-10-17 12:03:19 upgrade udev:amd64 229-4ubuntu8 229-4ubuntu11
2016-10-17 12:03:19 status half-configured udev:amd64 229-4ubuntu8
2016-10-17 12:03:19 status unpacked udev:amd64 229-4ubuntu8
2016-10-17 12:03:19 status half-installed udev:amd64 229-4ubuntu8
2016-10-17 12:03:19 status triggers-pending systemd:amd64 229-4ubuntu11
2016-10-17 12:03:19 status triggers-pending ureadahead:amd64 0.100.0-19
2016-10-17 12:03:19 status triggers-pending ureadahead:amd64 0.100.0-19
2016-10-17 12:03:19 status triggers-pending man-db:amd64 2.7.5-1
2016-10-17 12:03:19 status half-installed udev:amd64 229-4ubuntu8
2016-10-17 12:03:19 status unpacked udev:amd64 229-4ubuntu11
2016-10-17 12:03:19 status unpacked udev:amd64 229-4ubuntu11
2016-10-17 12:03:19 upgrade libudev1:amd64 229-4ubuntu8 229-4ubuntu11
2016-10-17 12:03:19 status triggers-pending libc-bin:amd64 2.23-0ubuntu3
2016-10-17 12:03:19 status half-configured libudev1:amd64 229-4ubuntu8
2016-10-17 12:03:19 status unpacked libudev1:amd64 229-4ubuntu8
2016-10-17 12:03:19 status half-installed libudev1:amd64 229-4ubuntu8
2016-10-17 12:03:20 status half-installed libudev1:amd64 229-4ubuntu8
2016-10-17 12:03:20 status unpacked libudev1:amd64 229-4ubuntu11
2016-10-17 12:03:20 status unpacked libudev1:amd64 229-4ubuntu11
2016-10-17 12:03:20 trigproc systemd:amd64 229-4ubuntu11 <none>
2016-10-17 12:03:20 status half-configured systemd:amd64 229-4ubuntu11
2016-10-17 12:03:20 status installed systemd:amd64 229-4ubuntu11
2016-10-17 12:03:20 trigproc ureadahead:amd64 0.100.0-19 <none>
2016-10-17 12:03:20 status half-configured ureadahead:amd64 0.100.0-19
2016-10-17 12:03:20 status installed ureadahead:amd64 0.100.0-19
2016-10-17 12:03:20 trigproc man-db:amd64 2.7.5-1 <none>
2016-10-17 12:03:20 status half-configured man-db:amd64 2.7.5-1
2016-10-17 12:03:20 status installed man-db:amd64 2.7.5-1
2016-10-17 12:03:20 trigproc libc-bin:amd64 2.23-0ubuntu3 <none>
2016-10-17 12:03:20 status half-configured libc-bin:amd64 2.23-0ubuntu3
2016-10-17 12:03:20 status installed libc-bin:amd64 2.23-0ubuntu3
2016-10-17 12:03:20 startup packages configure
2016-10-17 12:03:20 configure libudev1:amd64 229-4ubuntu11 <none>
2016-10-17 12:03:20 status triggers-pending libc-bin:amd64 2.23-0ubuntu3
2016-10-17 12:03:20 status unpacked libudev1:amd64 229-4ubuntu11
2016-10-17 12:03:20 status half-configured libudev1:amd64 229-4ubuntu11
2016-10-17 12:03:20 status installed libudev1:amd64 229-4ubuntu11
2016-10-17 12:03:20 trigproc libc-bin:amd64 2.23-0ubuntu3 <none>
2016-10-17 12:03:20 status half-configured libc-bin:amd64 2.23-0ubuntu3
2016-10-17 12:03:20 status installed libc-bin:amd64 2.23-0ubuntu3
2016-10-17 12:03:20 startup archives unpack
2016-10-17 12:03:20 upgrade klibc-utils:amd64 2.0.4-8ubuntu1.16.04.1 2.0.4-8ubuntu1.16.04.2
2016-10-17 12:03:20 status half-configured klibc-utils:amd64 2.0.4-8ubuntu1.16.04.1
2016-10-17 12:03:20 status unpacked klibc-utils:amd64 2.0.4-8ubuntu1.16.04.1
2016-10-17 12:03:20 status half-installed klibc-utils:amd64 2.0.4-8ubuntu1.16.04.1
2016-10-17 12:03:20 status half-installed klibc-utils:amd64 2.0.4-8ubuntu1.16.04.1
2016-10-17 12:03:20 status unpacked klibc-utils:amd64 2.0.4-8ubuntu1.16.04.2
2016-10-17 12:03:20 status unpacked klibc-utils:amd64 2.0.4-8ubuntu1.16.04.2
2016-10-17 12:03:20 upgrade initramfs-tools:all 0.122ubuntu8.1 0.122ubuntu8.3
2016-10-17 12:03:20 status half-configured initramfs-tools:all 0.122ubuntu8.1
2016-10-17 12:03:20 status unpacked initramfs-tools:all 0.122ubuntu8.1
2016-10-17 12:03:20 status half-installed initramfs-tools:all 0.122ubuntu8.1
2016-10-17 12:03:20 status triggers-pending man-db:amd64 2.7.5-1
2016-10-17 12:03:20 status half-installed initramfs-tools:all 0.122ubuntu8.1
2016-10-17 12:03:20 status unpacked initramfs-tools:all 0.122ubuntu8.3
2016-10-17 12:03:20 status unpacked initramfs-tools:all 0.122ubuntu8.3
2016-10-17 12:03:20 upgrade initramfs-tools-core:all 0.122ubuntu8.1 0.122ubuntu8.3
2016-10-17 12:03:20 status half-configured initramfs-tools-core:all 0.122ubuntu8.1
2016-10-17 12:03:20 status unpacked initramfs-tools-core:all 0.122ubuntu8.1
2016-10-17 12:03:20 status half-installed initramfs-tools-core:all 0.122ubuntu8.1
2016-10-17 12:03:21 status half-installed initramfs-tools-core:all 0.122ubuntu8.1
2016-10-17 12:03:21 status unpacked initramfs-tools-core:all 0.122ubuntu8.3
2016-10-17 12:03:21 status unpacked initramfs-tools-core:all 0.122ubuntu8.3
2016-10-17 12:03:21 upgrade initramfs-tools-bin:amd64 0.122ubuntu8.1 0.122ubuntu8.3
2016-10-17 12:03:21 status half-configured initramfs-tools-bin:amd64 0.122ubuntu8.1
2016-10-17 12:03:21 status unpacked initramfs-tools-bin:amd64 0.122ubuntu8.1
2016-10-17 12:03:21 status half-installed initramfs-tools-bin:amd64 0.122ubuntu8.1
2016-10-17 12:03:21 status half-installed initramfs-tools-bin:amd64 0.122ubuntu8.1
2016-10-17 12:03:21 status unpacked initramfs-tools-bin:amd64 0.122ubuntu8.3
2016-10-17 12:03:21 status unpacked initramfs-tools-bin:amd64 0.122ubuntu8.3
2016-10-17 12:03:21 upgrade libklibc:amd64 2.0.4-8ubuntu1.16.04.1 2.0.4-8ubuntu1.16.04.2
2016-10-17 12:03:21 status half-configured libklibc:amd64 2.0.4-8ubuntu1.16.04.1
2016-10-17 12:03:21 status unpacked libklibc:amd64 2.0.4-8ubuntu1.16.04.1
2016-10-17 12:03:21 status half-installed libklibc:amd64 2.0.4-8ubuntu1.16.04.1
2016-10-17 12:03:21 status half-installed libklibc:amd64 2.0.4-8ubuntu1.16.04.1
2016-10-17 12:03:21 status unpacked libklibc:amd64 2.0.4-8ubuntu1.16.04.2
2016-10-17 12:03:21 status unpacked libklibc:amd64 2.0.4-8ubuntu1.16.04.2
2016-10-17 12:03:21 upgrade systemd-sysv:amd64 229-4ubuntu8 229-4ubuntu11
2016-10-17 12:03:21 status half-configured systemd-sysv:amd64 229-4ubuntu8
2016-10-17 12:03:21 status unpacked systemd-sysv:amd64 229-4ubuntu8
2016-10-17 12:03:21 status half-installed systemd-sysv:amd64 229-4ubuntu8
2016-10-17 12:03:21 status half-installed systemd-sysv:amd64 229-4ubuntu8
2016-10-17 12:03:21 status unpacked systemd-sysv:amd64 229-4ubuntu11
2016-10-17 12:03:21 status unpacked systemd-sysv:amd64 229-4ubuntu11
2016-10-17 12:03:21 trigproc man-db:amd64 2.7.5-1 <none>
2016-10-17 12:03:21 status half-configured man-db:amd64 2.7.5-1
2016-10-17 12:03:21 status installed man-db:amd64 2.7.5-1
2016-10-17 12:03:21 startup packages configure
2016-10-17 12:03:21 configure systemd-sysv:amd64 229-4ubuntu11 <none>
2016-10-17 12:03:21 status unpacked systemd-sysv:amd64 229-4ubuntu11
2016-10-17 12:03:21 status half-configured systemd-sysv:amd64 229-4ubuntu11
2016-10-17 12:03:21 status installed systemd-sysv:amd64 229-4ubuntu11
2016-10-17 12:03:21 startup archives unpack
2016-10-17 12:03:21 upgrade ntpdate:amd64 1:4.2.8p4+dfsg-3ubuntu5.1 1:4.2.8p4+dfsg-3ubuntu5.3
2016-10-17 12:03:21 status half-configured ntpdate:amd64 1:4.2.8p4+dfsg-3ubuntu5.1
2016-10-17 12:03:21 status unpacked ntpdate:amd64 1:4.2.8p4+dfsg-3ubuntu5.1
2016-10-17 12:03:21 status half-installed ntpdate:amd64 1:4.2.8p4+dfsg-3ubuntu5.1
2016-10-17 12:03:21 status triggers-pending man-db:amd64 2.7.5-1
2016-10-17 12:03:21 status half-installed ntpdate:amd64 1:4.2.8p4+dfsg-3ubuntu5.1
2016-10-17 12:03:21 status unpacked ntpdate:amd64 1:4.2.8p4+dfsg-3ubuntu5.3
2016-10-17 12:03:21 status unpacked ntpdate:amd64 1:4.2.8p4+dfsg-3ubuntu5.3
2016-10-17 12:03:21 upgrade open-iscsi:amd64 2.0.873+git0.3b4b4500-14ubuntu3 2.0.873+git0.3b4b4500-14ubuntu3.1
2016-10-17 12:03:21 status half-configured open-iscsi:amd64 2.0.873+git0.3b4b4500-14ubuntu3
2016-10-17 12:03:22 status unpacked open-iscsi:amd64 2.0.873+git0.3b4b4500-14ubuntu3
2016-10-17 12:03:22 status half-installed open-iscsi:amd64 2.0.873+git0.3b4b4500-14ubuntu3
2016-10-17 12:03:22 status triggers-pending systemd:amd64 229-4ubuntu11
2016-10-17 12:03:22 status triggers-pending ureadahead:amd64 0.100.0-19
2016-10-17 12:03:22 status half-installed open-iscsi:amd64 2.0.873+git0.3b4b4500-14ubuntu3
2016-10-17 12:03:22 status unpacked open-iscsi:amd64 2.0.873+git0.3b4b4500-14ubuntu3.1
2016-10-17 12:03:22 status unpacked open-iscsi:amd64 2.0.873+git0.3b4b4500-14ubuntu3.1
2016-10-17 12:03:22 upgrade snap-confine:amd64 1.0.38-0ubuntu0.16.04.10 1.0.43-0ubuntu1~16.04.1
2016-10-17 12:03:22 status half-configured snap-confine:amd64 1.0.38-0ubuntu0.16.04.10
2016-10-17 12:03:22 status unpacked snap-confine:amd64 1.0.38-0ubuntu0.16.04.10
2016-10-17 12:03:22 status half-installed snap-confine:amd64 1.0.38-0ubuntu0.16.04.10
2016-10-17 12:03:22 status half-installed snap-confine:amd64 1.0.38-0ubuntu0.16.04.10
2016-10-17 12:03:22 status unpacked snap-confine:amd64 1.0.43-0ubuntu1~16.04.1
2016-10-17 12:03:22 status unpacked snap-confine:amd64 1.0.43-0ubuntu1~16.04.1
2016-10-17 12:03:22 upgrade ubuntu-core-launcher:amd64 1.0.38-0ubuntu0.16.04.10 1.0.43-0ubuntu1~16.04.1
2016-10-17 12:03:22 status half-configured ubuntu-core-launcher:amd64 1.0.38-0ubuntu0.16.04.10
2016-10-17 12:03:22 status unpacked ubuntu-core-launcher:amd64 1.0.38-0ubuntu0.16.04.10
2016-10-17 12:03:22 status half-installed ubuntu-core-launcher:amd64 1.0.38-0ubuntu0.16.04.10
2016-10-17 12:03:22 status half-installed ubuntu-core-launcher:amd64 1.0.38-0ubuntu0.16.04.10
2016-10-17 12:03:22 status unpacked ubuntu-core-launcher:amd64 1.0.43-0ubuntu1~16.04.1
2016-10-17 12:03:22 status unpacked ubuntu-core-launcher:amd64 1.0.43-0ubuntu1~16.04.1
2016-10-17 12:03:22 upgrade tzdata:all 2016f-0ubuntu0.16.04 2016g-0ubuntu0.16.04
2016-10-17 12:03:22 status half-configured tzdata:all 2016f-0ubuntu0.16.04
2016-10-17 12:03:22 status unpacked tzdata:all 2016f-0ubuntu0.16.04
2016-10-17 12:03:22 status half-installed tzdata:all 2016f-0ubuntu0.16.04
2016-10-17 12:03:23 status half-installed tzdata:all 2016f-0ubuntu0.16.04
2016-10-17 12:03:23 status unpacked tzdata:all 2016g-0ubuntu0.16.04
2016-10-17 12:03:23 status unpacked tzdata:all 2016g-0ubuntu0.16.04
2016-10-17 12:03:23 upgrade kbd:amd64 1.15.5-1ubuntu4 1.15.5-1ubuntu5
2016-10-17 12:03:23 status half-configured kbd:amd64 1.15.5-1ubuntu4
2016-10-17 12:03:23 status unpacked kbd:amd64 1.15.5-1ubuntu4
2016-10-17 12:03:23 status half-installed kbd:amd64 1.15.5-1ubuntu4
2016-10-17 12:03:24 status half-installed kbd:amd64 1.15.5-1ubuntu4
2016-10-17 12:03:24 status unpacked kbd:amd64 1.15.5-1ubuntu5
2016-10-17 12:03:24 status unpacked kbd:amd64 1.15.5-1ubuntu5
2016-10-17 12:03:24 upgrade python3-update-manager:all 1:16.04.3 1:16.04.4
2016-10-17 12:03:24 status half-configured python3-update-manager:all 1:16.04.3
2016-10-17 12:03:24 status unpacked python3-update-manager:all 1:16.04.3
2016-10-17 12:03:24 status half-installed python3-update-manager:all 1:16.04.3
2016-10-17 12:03:24 status half-installed python3-update-manager:all 1:16.04.3
2016-10-17 12:03:24 status unpacked python3-update-manager:all 1:16.04.4
2016-10-17 12:03:24 status unpacked python3-update-manager:all 1:16.04.4
2016-10-17 12:03:24 upgrade update-manager-core:all 1:16.04.3 1:16.04.4
2016-10-17 12:03:24 status half-configured update-manager-core:all 1:16.04.3
2016-10-17 12:03:24 status unpacked update-manager-core:all 1:16.04.3
2016-10-17 12:03:24 status half-installed update-manager-core:all 1:16.04.3
2016-10-17 12:03:24 status half-installed update-manager-core:all 1:16.04.3
2016-10-17 12:03:24 status unpacked update-manager-core:all 1:16.04.4
2016-10-17 12:03:24 status unpacked update-manager-core:all 1:16.04.4
2016-10-17 12:03:24 upgrade google-cloud-sdk:all 127.0.0-0 130.0.0-0
2016-10-17 12:03:24 status half-configured google-cloud-sdk:all 127.0.0-0
2016-10-17 12:03:24 status unpacked google-cloud-sdk:all 127.0.0-0
2016-10-17 12:03:25 status half-installed google-cloud-sdk:all 127.0.0-0
2016-10-17 12:03:31 status half-installed google-cloud-sdk:all 127.0.0-0
2016-10-17 12:03:31 status unpacked google-cloud-sdk:all 130.0.0-0
2016-10-17 12:03:31 status unpacked google-cloud-sdk:all 130.0.0-0
2016-10-17 12:03:31 upgrade grive:amd64 0.5.1-1+git20160905~webupd8~xenial0 0.5.1-1+git20161013~webupd8~xenial0
2016-10-17 12:03:31 status half-configured grive:amd64 0.5.1-1+git20160905~webupd8~xenial0
2016-10-17 12:03:31 status unpacked grive:amd64 0.5.1-1+git20160905~webupd8~xenial0
2016-10-17 12:03:31 status half-installed grive:amd64 0.5.1-1+git20160905~webupd8~xenial0
2016-10-17 12:03:31 status half-installed grive:amd64 0.5.1-1+git20160905~webupd8~xenial0
2016-10-17 12:03:31 status unpacked grive:amd64 0.5.1-1+git20161013~webupd8~xenial0
2016-10-17 12:03:31 status unpacked grive:amd64 0.5.1-1+git20161013~webupd8~xenial0
2016-10-17 12:03:31 upgrade linux-firmware:all 1.157.3 1.157.4
2016-10-17 12:03:31 status half-configured linux-firmware:all 1.157.3
2016-10-17 12:03:31 status unpacked linux-firmware:all 1.157.3
2016-10-17 12:03:31 status half-installed linux-firmware:all 1.157.3
2016-10-17 12:03:37 status half-installed linux-firmware:all 1.157.3
2016-10-17 12:03:37 status unpacked linux-firmware:all 1.157.4
2016-10-17 12:03:37 status unpacked linux-firmware:all 1.157.4
2016-10-17 12:03:37 upgrade linux-libc-dev:amd64 4.4.0-38.57 4.4.0-43.63
2016-10-17 12:03:37 status half-configured linux-libc-dev:amd64 4.4.0-38.57
2016-10-17 12:03:37 status unpacked linux-libc-dev:amd64 4.4.0-38.57
2016-10-17 12:03:37 status half-installed linux-libc-dev:amd64 4.4.0-38.57
2016-10-17 12:03:38 status half-installed linux-libc-dev:amd64 4.4.0-38.57
2016-10-17 12:03:38 status unpacked linux-libc-dev:amd64 4.4.0-43.63
2016-10-17 12:03:38 status unpacked linux-libc-dev:amd64 4.4.0-43.63
2016-10-17 12:03:38 upgrade php7.0-readline:amd64 7.0.8-0ubuntu0.16.04.2 7.0.8-0ubuntu0.16.04.3
2016-10-17 12:03:38 status triggers-pending php7.0-fpm:amd64 7.0.8-0ubuntu0.16.04.2
2016-10-17 12:03:38 status half-configured php7.0-readline:amd64 7.0.8-0ubuntu0.16.04.2
2016-10-17 12:03:38 status unpacked php7.0-readline:amd64 7.0.8-0ubuntu0.16.04.2
2016-10-17 12:03:38 status half-installed php7.0-readline:amd64 7.0.8-0ubuntu0.16.04.2
2016-10-17 12:03:38 status half-installed php7.0-readline:amd64 7.0.8-0ubuntu0.16.04.2
2016-10-17 12:03:38 status unpacked php7.0-readline:amd64 7.0.8-0ubuntu0.16.04.3
2016-10-17 12:03:38 status unpacked php7.0-readline:amd64 7.0.8-0ubuntu0.16.04.3
2016-10-17 12:03:38 upgrade php7.0-json:amd64 7.0.8-0ubuntu0.16.04.2 7.0.8-0ubuntu0.16.04.3
2016-10-17 12:03:38 status half-configured php7.0-json:amd64 7.0.8-0ubuntu0.16.04.2
2016-10-17 12:03:38 status unpacked php7.0-json:amd64 7.0.8-0ubuntu0.16.04.2
2016-10-17 12:03:38 status half-installed php7.0-json:amd64 7.0.8-0ubuntu0.16.04.2
2016-10-17 12:03:38 status half-installed php7.0-json:amd64 7.0.8-0ubuntu0.16.04.2
2016-10-17 12:03:38 status unpacked php7.0-json:amd64 7.0.8-0ubuntu0.16.04.3
2016-10-17 12:03:38 status unpacked php7.0-json:amd64 7.0.8-0ubuntu0.16.04.3
2016-10-17 12:03:38 upgrade php7.0-opcache:amd64 7.0.8-0ubuntu0.16.04.2 7.0.8-0ubuntu0.16.04.3
2016-10-17 12:03:38 status half-configured php7.0-opcache:amd64 7.0.8-0ubuntu0.16.04.2
2016-10-17 12:03:38 status unpacked php7.0-opcache:amd64 7.0.8-0ubuntu0.16.04.2
2016-10-17 12:03:38 status half-installed php7.0-opcache:amd64 7.0.8-0ubuntu0.16.04.2
2016-10-17 12:03:38 status half-installed php7.0-opcache:amd64 7.0.8-0ubuntu0.16.04.2
2016-10-17 12:03:38 status unpacked php7.0-opcache:amd64 7.0.8-0ubuntu0.16.04.3
2016-10-17 12:03:38 status unpacked php7.0-opcache:amd64 7.0.8-0ubuntu0.16.04.3
2016-10-17 12:03:38 upgrade php7.0-fpm:amd64 7.0.8-0ubuntu0.16.04.2 7.0.8-0ubuntu0.16.04.3
2016-10-17 12:03:38 status half-configured php7.0-fpm:amd64 7.0.8-0ubuntu0.16.04.2
2016-10-17 12:03:38 status unpacked php7.0-fpm:amd64 7.0.8-0ubuntu0.16.04.2
2016-10-17 12:03:38 status half-installed php7.0-fpm:amd64 7.0.8-0ubuntu0.16.04.2
2016-10-17 12:03:38 status triggers-pending ureadahead:amd64 0.100.0-19
2016-10-17 12:03:38 status half-installed php7.0-fpm:amd64 7.0.8-0ubuntu0.16.04.2
2016-10-17 12:03:39 status unpacked php7.0-fpm:amd64 7.0.8-0ubuntu0.16.04.3
2016-10-17 12:03:39 status unpacked php7.0-fpm:amd64 7.0.8-0ubuntu0.16.04.3
2016-10-17 12:03:39 upgrade php7.0-cli:amd64 7.0.8-0ubuntu0.16.04.2 7.0.8-0ubuntu0.16.04.3
2016-10-17 12:03:39 status half-configured php7.0-cli:amd64 7.0.8-0ubuntu0.16.04.2
2016-10-17 12:03:39 status unpacked php7.0-cli:amd64 7.0.8-0ubuntu0.16.04.2
2016-10-17 12:03:39 status half-installed php7.0-cli:amd64 7.0.8-0ubuntu0.16.04.2
2016-10-17 12:03:39 status half-installed php7.0-cli:amd64 7.0.8-0ubuntu0.16.04.2
2016-10-17 12:03:39 status unpacked php7.0-cli:amd64 7.0.8-0ubuntu0.16.04.3
2016-10-17 12:03:39 status unpacked php7.0-cli:amd64 7.0.8-0ubuntu0.16.04.3
2016-10-17 12:03:39 upgrade php7.0:all 7.0.8-0ubuntu0.16.04.2 7.0.8-0ubuntu0.16.04.3
2016-10-17 12:03:39 status half-configured php7.0:all 7.0.8-0ubuntu0.16.04.2
2016-10-17 12:03:39 status unpacked php7.0:all 7.0.8-0ubuntu0.16.04.2
2016-10-17 12:03:39 status half-installed php7.0:all 7.0.8-0ubuntu0.16.04.2
2016-10-17 12:03:39 status half-installed php7.0:all 7.0.8-0ubuntu0.16.04.2
2016-10-17 12:03:39 status unpacked php7.0:all 7.0.8-0ubuntu0.16.04.3
2016-10-17 12:03:39 status unpacked php7.0:all 7.0.8-0ubuntu0.16.04.3
2016-10-17 12:03:39 upgrade php7.0-common:amd64 7.0.8-0ubuntu0.16.04.2 7.0.8-0ubuntu0.16.04.3
2016-10-17 12:03:39 status half-configured php7.0-common:amd64 7.0.8-0ubuntu0.16.04.2
2016-10-17 12:03:39 status unpacked php7.0-common:amd64 7.0.8-0ubuntu0.16.04.2
2016-10-17 12:03:39 status half-installed php7.0-common:amd64 7.0.8-0ubuntu0.16.04.2
2016-10-17 12:03:39 status half-installed php7.0-common:amd64 7.0.8-0ubuntu0.16.04.2
2016-10-17 12:03:39 status unpacked php7.0-common:amd64 7.0.8-0ubuntu0.16.04.3
2016-10-17 12:03:39 status unpacked php7.0-common:amd64 7.0.8-0ubuntu0.16.04.3
2016-10-17 12:03:39 upgrade pollinate:all 4.21-0ubuntu1~16.04 4.23-0ubuntu1~16.04
2016-10-17 12:03:39 status half-configured pollinate:all 4.21-0ubuntu1~16.04
2016-10-17 12:03:39 status unpacked pollinate:all 4.21-0ubuntu1~16.04
2016-10-17 12:03:40 status half-installed pollinate:all 4.21-0ubuntu1~16.04
2016-10-17 12:03:40 status half-installed pollinate:all 4.21-0ubuntu1~16.04
2016-10-17 12:03:40 status unpacked pollinate:all 4.23-0ubuntu1~16.04
2016-10-17 12:03:40 status unpacked pollinate:all 4.23-0ubuntu1~16.04
2016-10-17 12:03:40 upgrade cloud-init:all 0.7.8-1-g3705bb5-0ubuntu1~16.04.1 0.7.8-1-g3705bb5-0ubuntu1~16.04.3
2016-10-17 12:03:40 status half-configured cloud-init:all 0.7.8-1-g3705bb5-0ubuntu1~16.04.1
2016-10-17 12:03:40 status unpacked cloud-init:all 0.7.8-1-g3705bb5-0ubuntu1~16.04.1
2016-10-17 12:03:40 status half-installed cloud-init:all 0.7.8-1-g3705bb5-0ubuntu1~16.04.1
2016-10-17 12:03:40 status half-installed cloud-init:all 0.7.8-1-g3705bb5-0ubuntu1~16.04.1
2016-10-17 12:03:40 status unpacked cloud-init:all 0.7.8-1-g3705bb5-0ubuntu1~16.04.3
2016-10-17 12:03:40 status unpacked cloud-init:all 0.7.8-1-g3705bb5-0ubuntu1~16.04.3
2016-10-17 12:03:40 upgrade cloud-initramfs-copymods:all 0.27ubuntu1 0.27ubuntu1.2
2016-10-17 12:03:40 status half-configured cloud-initramfs-copymods:all 0.27ubuntu1
2016-10-17 12:03:40 status unpacked cloud-initramfs-copymods:all 0.27ubuntu1
2016-10-17 12:03:40 status half-installed cloud-initramfs-copymods:all 0.27ubuntu1
2016-10-17 12:03:40 status half-installed cloud-initramfs-copymods:all 0.27ubuntu1
2016-10-17 12:03:41 status unpacked cloud-initramfs-copymods:all 0.27ubuntu1.2
2016-10-17 12:03:41 status unpacked cloud-initramfs-copymods:all 0.27ubuntu1.2
2016-10-17 12:03:41 upgrade cloud-initramfs-dyn-netconf:all 0.27ubuntu1 0.27ubuntu1.2
2016-10-17 12:03:41 status half-configured cloud-initramfs-dyn-netconf:all 0.27ubuntu1
2016-10-17 12:03:41 status unpacked cloud-initramfs-dyn-netconf:all 0.27ubuntu1
2016-10-17 12:03:41 status half-installed cloud-initramfs-dyn-netconf:all 0.27ubuntu1
2016-10-17 12:03:41 status half-installed cloud-initramfs-dyn-netconf:all 0.27ubuntu1
2016-10-17 12:03:41 status unpacked cloud-initramfs-dyn-netconf:all 0.27ubuntu1.2
2016-10-17 12:03:41 status unpacked cloud-initramfs-dyn-netconf:all 0.27ubuntu1.2
2016-10-17 12:03:41 upgrade grub-legacy-ec2:all 0.7.8-1-g3705bb5-0ubuntu1~16.04.1 0.7.8-1-g3705bb5-0ubuntu1~16.04.3
2016-10-17 12:03:41 status half-configured grub-legacy-ec2:all 0.7.8-1-g3705bb5-0ubuntu1~16.04.1
2016-10-17 12:03:41 status unpacked grub-legacy-ec2:all 0.7.8-1-g3705bb5-0ubuntu1~16.04.1
2016-10-17 12:03:41 status half-installed grub-legacy-ec2:all 0.7.8-1-g3705bb5-0ubuntu1~16.04.1
2016-10-17 12:03:41 status half-installed grub-legacy-ec2:all 0.7.8-1-g3705bb5-0ubuntu1~16.04.1
2016-10-17 12:03:41 status unpacked grub-legacy-ec2:all 0.7.8-1-g3705bb5-0ubuntu1~16.04.3
2016-10-17 12:03:41 status unpacked grub-legacy-ec2:all 0.7.8-1-g3705bb5-0ubuntu1~16.04.3
2016-10-17 12:03:41 upgrade overlayroot:all 0.27ubuntu1 0.27ubuntu1.2
2016-10-17 12:03:41 status half-configured overlayroot:all 0.27ubuntu1
2016-10-17 12:03:41 status unpacked overlayroot:all 0.27ubuntu1
2016-10-17 12:03:41 status half-installed overlayroot:all 0.27ubuntu1
2016-10-17 12:03:41 status half-installed overlayroot:all 0.27ubuntu1
2016-10-17 12:03:41 status unpacked overlayroot:all 0.27ubuntu1.2
2016-10-17 12:03:41 status unpacked overlayroot:all 0.27ubuntu1.2
2016-10-17 12:03:41 trigproc man-db:amd64 2.7.5-1 <none>
2016-10-17 12:03:41 status half-configured man-db:amd64 2.7.5-1
2016-10-17 12:03:43 status installed man-db:amd64 2.7.5-1
2016-10-17 12:03:43 trigproc systemd:amd64 229-4ubuntu11 <none>
2016-10-17 12:03:43 status half-configured systemd:amd64 229-4ubuntu11
2016-10-17 12:03:43 status installed systemd:amd64 229-4ubuntu11
2016-10-17 12:03:43 trigproc ureadahead:amd64 0.100.0-19 <none>
2016-10-17 12:03:43 status half-configured ureadahead:amd64 0.100.0-19
2016-10-17 12:03:43 status installed ureadahead:amd64 0.100.0-19
2016-10-17 12:03:43 startup packages configure
2016-10-17 12:03:43 configure libpam-systemd:amd64 229-4ubuntu11 <none>
2016-10-17 12:03:43 status unpacked libpam-systemd:amd64 229-4ubuntu11
2016-10-17 12:03:43 status half-configured libpam-systemd:amd64 229-4ubuntu11
2016-10-17 12:03:44 status installed libpam-systemd:amd64 229-4ubuntu11
2016-10-17 12:03:44 configure udev:amd64 229-4ubuntu11 <none>
2016-10-17 12:03:44 status unpacked udev:amd64 229-4ubuntu11
2016-10-17 12:03:44 status unpacked udev:amd64 229-4ubuntu11
2016-10-17 12:03:44 status unpacked udev:amd64 229-4ubuntu11
2016-10-17 12:03:44 status unpacked udev:amd64 229-4ubuntu11
2016-10-17 12:03:44 status unpacked udev:amd64 229-4ubuntu11
2016-10-17 12:03:44 status unpacked udev:amd64 229-4ubuntu11
2016-10-17 12:03:44 status unpacked udev:amd64 229-4ubuntu11
2016-10-17 12:03:44 status half-configured udev:amd64 229-4ubuntu11
2016-10-17 12:03:44 status installed udev:amd64 229-4ubuntu11
2016-10-17 12:03:44 configure libklibc:amd64 2.0.4-8ubuntu1.16.04.2 <none>
2016-10-17 12:03:44 status unpacked libklibc:amd64 2.0.4-8ubuntu1.16.04.2
2016-10-17 12:03:44 status half-configured libklibc:amd64 2.0.4-8ubuntu1.16.04.2
2016-10-17 12:03:44 status installed libklibc:amd64 2.0.4-8ubuntu1.16.04.2
2016-10-17 12:03:44 configure klibc-utils:amd64 2.0.4-8ubuntu1.16.04.2 <none>
2016-10-17 12:03:44 status unpacked klibc-utils:amd64 2.0.4-8ubuntu1.16.04.2
2016-10-17 12:03:44 status half-configured klibc-utils:amd64 2.0.4-8ubuntu1.16.04.2
2016-10-17 12:03:44 status installed klibc-utils:amd64 2.0.4-8ubuntu1.16.04.2
2016-10-17 12:03:44 configure initramfs-tools-bin:amd64 0.122ubuntu8.3 <none>
2016-10-17 12:03:44 status unpacked initramfs-tools-bin:amd64 0.122ubuntu8.3
2016-10-17 12:03:44 status half-configured initramfs-tools-bin:amd64 0.122ubuntu8.3
2016-10-17 12:03:44 status installed initramfs-tools-bin:amd64 0.122ubuntu8.3
2016-10-17 12:03:44 configure initramfs-tools-core:all 0.122ubuntu8.3 <none>
2016-10-17 12:03:44 status unpacked initramfs-tools-core:all 0.122ubuntu8.3
2016-10-17 12:03:44 status unpacked initramfs-tools-core:all 0.122ubuntu8.3
2016-10-17 12:03:44 status half-configured initramfs-tools-core:all 0.122ubuntu8.3
2016-10-17 12:03:45 status installed initramfs-tools-core:all 0.122ubuntu8.3
2016-10-17 12:03:45 configure initramfs-tools:all 0.122ubuntu8.3 <none>
2016-10-17 12:03:45 status unpacked initramfs-tools:all 0.122ubuntu8.3
2016-10-17 12:03:45 status unpacked initramfs-tools:all 0.122ubuntu8.3
2016-10-17 12:03:45 status unpacked initramfs-tools:all 0.122ubuntu8.3
2016-10-17 12:03:45 status unpacked initramfs-tools:all 0.122ubuntu8.3
2016-10-17 12:03:45 status half-configured initramfs-tools:all 0.122ubuntu8.3
2016-10-17 12:03:45 status installed initramfs-tools:all 0.122ubuntu8.3
2016-10-17 12:03:45 status triggers-pending initramfs-tools:all 0.122ubuntu8.3
2016-10-17 12:03:45 configure ntpdate:amd64 1:4.2.8p4+dfsg-3ubuntu5.3 <none>
2016-10-17 12:03:45 status unpacked ntpdate:amd64 1:4.2.8p4+dfsg-3ubuntu5.3
2016-10-17 12:03:45 status unpacked ntpdate:amd64 1:4.2.8p4+dfsg-3ubuntu5.3
2016-10-17 12:03:45 status unpacked ntpdate:amd64 1:4.2.8p4+dfsg-3ubuntu5.3
2016-10-17 12:03:45 status unpacked ntpdate:amd64 1:4.2.8p4+dfsg-3ubuntu5.3
2016-10-17 12:03:45 status unpacked ntpdate:amd64 1:4.2.8p4+dfsg-3ubuntu5.3
2016-10-17 12:03:45 status half-configured ntpdate:amd64 1:4.2.8p4+dfsg-3ubuntu5.3
2016-10-17 12:03:45 status installed ntpdate:amd64 1:4.2.8p4+dfsg-3ubuntu5.3
2016-10-17 12:03:45 configure open-iscsi:amd64 2.0.873+git0.3b4b4500-14ubuntu3.1 <none>
2016-10-17 12:03:45 status unpacked open-iscsi:amd64 2.0.873+git0.3b4b4500-14ubuntu3.1
2016-10-17 12:03:45 status unpacked open-iscsi:amd64 2.0.873+git0.3b4b4500-14ubuntu3.1
2016-10-17 12:03:45 status unpacked open-iscsi:amd64 2.0.873+git0.3b4b4500-14ubuntu3.1
2016-10-17 12:03:45 status unpacked open-iscsi:amd64 2.0.873+git0.3b4b4500-14ubuntu3.1
2016-10-17 12:03:45 status unpacked open-iscsi:amd64 2.0.873+git0.3b4b4500-14ubuntu3.1
2016-10-17 12:03:45 status unpacked open-iscsi:amd64 2.0.873+git0.3b4b4500-14ubuntu3.1
2016-10-17 12:03:45 status half-configured open-iscsi:amd64 2.0.873+git0.3b4b4500-14ubuntu3.1
2016-10-17 12:03:46 status triggers-awaited open-iscsi:amd64 2.0.873+git0.3b4b4500-14ubuntu3.1
2016-10-17 12:03:46 configure snap-confine:amd64 1.0.43-0ubuntu1~16.04.1 <none>
2016-10-17 12:03:46 status unpacked snap-confine:amd64 1.0.43-0ubuntu1~16.04.1
2016-10-17 12:03:46 status unpacked snap-confine:amd64 1.0.43-0ubuntu1~16.04.1
2016-10-17 12:03:46 status half-configured snap-confine:amd64 1.0.43-0ubuntu1~16.04.1
2016-10-17 12:03:46 status installed snap-confine:amd64 1.0.43-0ubuntu1~16.04.1
2016-10-17 12:03:46 configure ubuntu-core-launcher:amd64 1.0.43-0ubuntu1~16.04.1 <none>
2016-10-17 12:03:46 status unpacked ubuntu-core-launcher:amd64 1.0.43-0ubuntu1~16.04.1
2016-10-17 12:03:46 status half-configured ubuntu-core-launcher:amd64 1.0.43-0ubuntu1~16.04.1
2016-10-17 12:03:46 status installed ubuntu-core-launcher:amd64 1.0.43-0ubuntu1~16.04.1
2016-10-17 12:03:46 configure tzdata:all 2016g-0ubuntu0.16.04 <none>
2016-10-17 12:03:46 status unpacked tzdata:all 2016g-0ubuntu0.16.04
2016-10-17 12:03:46 status half-configured tzdata:all 2016g-0ubuntu0.16.04
2016-10-17 12:03:47 status installed tzdata:all 2016g-0ubuntu0.16.04
2016-10-17 12:03:47 configure kbd:amd64 1.15.5-1ubuntu5 <none>
2016-10-17 12:03:47 status unpacked kbd:amd64 1.15.5-1ubuntu5
2016-10-17 12:03:47 status unpacked kbd:amd64 1.15.5-1ubuntu5
2016-10-17 12:03:47 status unpacked kbd:amd64 1.15.5-1ubuntu5
2016-10-17 12:03:47 status half-configured kbd:amd64 1.15.5-1ubuntu5
2016-10-17 12:03:47 status installed kbd:amd64 1.15.5-1ubuntu5
2016-10-17 12:03:47 configure python3-update-manager:all 1:16.04.4 <none>
2016-10-17 12:03:47 status unpacked python3-update-manager:all 1:16.04.4
2016-10-17 12:03:47 status half-configured python3-update-manager:all 1:16.04.4
2016-10-17 12:03:47 status installed python3-update-manager:all 1:16.04.4
2016-10-17 12:03:47 configure update-manager-core:all 1:16.04.4 <none>
2016-10-17 12:03:47 status unpacked update-manager-core:all 1:16.04.4
2016-10-17 12:03:47 status half-configured update-manager-core:all 1:16.04.4
2016-10-17 12:03:47 status installed update-manager-core:all 1:16.04.4
2016-10-17 12:03:47 configure google-cloud-sdk:all 130.0.0-0 <none>
2016-10-17 12:03:47 status unpacked google-cloud-sdk:all 130.0.0-0
2016-10-17 12:03:47 status half-configured google-cloud-sdk:all 130.0.0-0
2016-10-17 12:03:47 status installed google-cloud-sdk:all 130.0.0-0
2016-10-17 12:03:47 configure grive:amd64 0.5.1-1+git20161013~webupd8~xenial0 <none>
2016-10-17 12:03:47 status unpacked grive:amd64 0.5.1-1+git20161013~webupd8~xenial0
2016-10-17 12:03:47 status half-configured grive:amd64 0.5.1-1+git20161013~webupd8~xenial0
2016-10-17 12:03:47 status installed grive:amd64 0.5.1-1+git20161013~webupd8~xenial0
2016-10-17 12:03:47 configure linux-firmware:all 1.157.4 <none>
2016-10-17 12:03:47 status unpacked linux-firmware:all 1.157.4
2016-10-17 12:03:47 status half-configured linux-firmware:all 1.157.4
2016-10-17 12:03:47 status installed linux-firmware:all 1.157.4
2016-10-17 12:03:47 configure linux-libc-dev:amd64 4.4.0-43.63 <none>
2016-10-17 12:03:47 status unpacked linux-libc-dev:amd64 4.4.0-43.63
2016-10-17 12:03:47 status half-configured linux-libc-dev:amd64 4.4.0-43.63
2016-10-17 12:03:47 status installed linux-libc-dev:amd64 4.4.0-43.63
2016-10-17 12:03:47 configure php7.0-common:amd64 7.0.8-0ubuntu0.16.04.3 <none>
2016-10-17 12:03:47 status unpacked php7.0-common:amd64 7.0.8-0ubuntu0.16.04.3
2016-10-17 12:03:47 status half-configured php7.0-common:amd64 7.0.8-0ubuntu0.16.04.3
2016-10-17 12:04:01 status installed php7.0-common:amd64 7.0.8-0ubuntu0.16.04.3
2016-10-17 12:04:01 configure php7.0-readline:amd64 7.0.8-0ubuntu0.16.04.3 <none>
2016-10-17 12:04:01 status unpacked php7.0-readline:amd64 7.0.8-0ubuntu0.16.04.3
2016-10-17 12:04:01 status half-configured php7.0-readline:amd64 7.0.8-0ubuntu0.16.04.3
2016-10-17 12:04:02 status installed php7.0-readline:amd64 7.0.8-0ubuntu0.16.04.3
2016-10-17 12:04:02 configure php7.0-json:amd64 7.0.8-0ubuntu0.16.04.3 <none>
2016-10-17 12:04:02 status unpacked php7.0-json:amd64 7.0.8-0ubuntu0.16.04.3
2016-10-17 12:04:02 status half-configured php7.0-json:amd64 7.0.8-0ubuntu0.16.04.3
2016-10-17 12:04:03 status installed php7.0-json:amd64 7.0.8-0ubuntu0.16.04.3
2016-10-17 12:04:03 configure php7.0-opcache:amd64 7.0.8-0ubuntu0.16.04.3 <none>
2016-10-17 12:04:03 status unpacked php7.0-opcache:amd64 7.0.8-0ubuntu0.16.04.3
2016-10-17 12:04:03 status half-configured php7.0-opcache:amd64 7.0.8-0ubuntu0.16.04.3
2016-10-17 12:04:04 status installed php7.0-opcache:amd64 7.0.8-0ubuntu0.16.04.3
2016-10-17 12:04:04 configure php7.0-cli:amd64 7.0.8-0ubuntu0.16.04.3 <none>
2016-10-17 12:04:04 status unpacked php7.0-cli:amd64 7.0.8-0ubuntu0.16.04.3
2016-10-17 12:04:04 status half-configured php7.0-cli:amd64 7.0.8-0ubuntu0.16.04.3
2016-10-17 12:04:06 status installed php7.0-cli:amd64 7.0.8-0ubuntu0.16.04.3
2016-10-17 12:04:06 configure php7.0-fpm:amd64 7.0.8-0ubuntu0.16.04.3 <none>
2016-10-17 12:04:06 status unpacked php7.0-fpm:amd64 7.0.8-0ubuntu0.16.04.3
2016-10-17 12:04:06 status unpacked php7.0-fpm:amd64 7.0.8-0ubuntu0.16.04.3
2016-10-17 12:04:06 status unpacked php7.0-fpm:amd64 7.0.8-0ubuntu0.16.04.3
2016-10-17 12:04:07 status unpacked php7.0-fpm:amd64 7.0.8-0ubuntu0.16.04.3
2016-10-17 12:04:07 status unpacked php7.0-fpm:amd64 7.0.8-0ubuntu0.16.04.3
2016-10-17 12:04:07 status unpacked php7.0-fpm:amd64 7.0.8-0ubuntu0.16.04.3
2016-10-17 12:04:07 status unpacked php7.0-fpm:amd64 7.0.8-0ubuntu0.16.04.3
2016-10-17 12:04:07 status half-configured php7.0-fpm:amd64 7.0.8-0ubuntu0.16.04.3
2016-10-17 12:04:09 status installed php7.0-fpm:amd64 7.0.8-0ubuntu0.16.04.3
2016-10-17 12:04:09 configure php7.0:all 7.0.8-0ubuntu0.16.04.3 <none>
2016-10-17 12:04:09 status unpacked php7.0:all 7.0.8-0ubuntu0.16.04.3
2016-10-17 12:04:09 status half-configured php7.0:all 7.0.8-0ubuntu0.16.04.3
2016-10-17 12:04:09 status installed php7.0:all 7.0.8-0ubuntu0.16.04.3
2016-10-17 12:04:09 configure pollinate:all 4.23-0ubuntu1~16.04 <none>
2016-10-17 12:04:09 status unpacked pollinate:all 4.23-0ubuntu1~16.04
2016-10-17 12:04:09 status unpacked pollinate:all 4.23-0ubuntu1~16.04
2016-10-17 12:04:09 status unpacked pollinate:all 4.23-0ubuntu1~16.04
2016-10-17 12:04:09 status unpacked pollinate:all 4.23-0ubuntu1~16.04
2016-10-17 12:04:09 status half-configured pollinate:all 4.23-0ubuntu1~16.04
2016-10-17 12:04:09 status installed pollinate:all 4.23-0ubuntu1~16.04
2016-10-17 12:04:09 configure cloud-init:all 0.7.8-1-g3705bb5-0ubuntu1~16.04.3 <none>
2016-10-17 12:04:09 status unpacked cloud-init:all 0.7.8-1-g3705bb5-0ubuntu1~16.04.3
2016-10-17 12:04:09 status unpacked cloud-init:all 0.7.8-1-g3705bb5-0ubuntu1~16.04.3
2016-10-17 12:04:09 status unpacked cloud-init:all 0.7.8-1-g3705bb5-0ubuntu1~16.04.3
2016-10-17 12:04:09 status unpacked cloud-init:all 0.7.8-1-g3705bb5-0ubuntu1~16.04.3
2016-10-17 12:04:09 status unpacked cloud-init:all 0.7.8-1-g3705bb5-0ubuntu1~16.04.3
2016-10-17 12:04:09 status unpacked cloud-init:all 0.7.8-1-g3705bb5-0ubuntu1~16.04.3
2016-10-17 12:04:09 status unpacked cloud-init:all 0.7.8-1-g3705bb5-0ubuntu1~16.04.3
2016-10-17 12:04:09 status unpacked cloud-init:all 0.7.8-1-g3705bb5-0ubuntu1~16.04.3
2016-10-17 12:04:09 status unpacked cloud-init:all 0.7.8-1-g3705bb5-0ubuntu1~16.04.3
2016-10-17 12:04:09 status unpacked cloud-init:all 0.7.8-1-g3705bb5-0ubuntu1~16.04.3
2016-10-17 12:04:09 status unpacked cloud-init:all 0.7.8-1-g3705bb5-0ubuntu1~16.04.3
2016-10-17 12:04:09 status unpacked cloud-init:all 0.7.8-1-g3705bb5-0ubuntu1~16.04.3
2016-10-17 12:04:09 status unpacked cloud-init:all 0.7.8-1-g3705bb5-0ubuntu1~16.04.3
2016-10-17 12:04:09 status unpacked cloud-init:all 0.7.8-1-g3705bb5-0ubuntu1~16.04.3
2016-10-17 12:04:09 status unpacked cloud-init:all 0.7.8-1-g3705bb5-0ubuntu1~16.04.3
2016-10-17 12:04:09 status unpacked cloud-init:all 0.7.8-1-g3705bb5-0ubuntu1~16.04.3
2016-10-17 12:04:09 status unpacked cloud-init:all 0.7.8-1-g3705bb5-0ubuntu1~16.04.3
2016-10-17 12:04:09 status unpacked cloud-init:all 0.7.8-1-g3705bb5-0ubuntu1~16.04.3
2016-10-17 12:04:09 status unpacked cloud-init:all 0.7.8-1-g3705bb5-0ubuntu1~16.04.3
2016-10-17 12:04:09 status unpacked cloud-init:all 0.7.8-1-g3705bb5-0ubuntu1~16.04.3
2016-10-17 12:04:09 status unpacked cloud-init:all 0.7.8-1-g3705bb5-0ubuntu1~16.04.3
2016-10-17 12:04:09 status unpacked cloud-init:all 0.7.8-1-g3705bb5-0ubuntu1~16.04.3
2016-10-17 12:04:09 status unpacked cloud-init:all 0.7.8-1-g3705bb5-0ubuntu1~16.04.3
2016-10-17 12:04:09 status unpacked cloud-init:all 0.7.8-1-g3705bb5-0ubuntu1~16.04.3
2016-10-17 12:04:09 status unpacked cloud-init:all 0.7.8-1-g3705bb5-0ubuntu1~16.04.3
2016-10-17 12:04:09 status unpacked cloud-init:all 0.7.8-1-g3705bb5-0ubuntu1~16.04.3
2016-10-17 12:04:09 status unpacked cloud-init:all 0.7.8-1-g3705bb5-0ubuntu1~16.04.3
2016-10-17 12:04:09 status unpacked cloud-init:all 0.7.8-1-g3705bb5-0ubuntu1~16.04.3
2016-10-17 12:04:09 status unpacked cloud-init:all 0.7.8-1-g3705bb5-0ubuntu1~16.04.3
2016-10-17 12:04:09 status half-configured cloud-init:all 0.7.8-1-g3705bb5-0ubuntu1~16.04.3
2016-10-17 12:04:11 status installed cloud-init:all 0.7.8-1-g3705bb5-0ubuntu1~16.04.3
2016-10-17 12:04:11 configure cloud-initramfs-copymods:all 0.27ubuntu1.2 <none>
2016-10-17 12:04:11 status unpacked cloud-initramfs-copymods:all 0.27ubuntu1.2
2016-10-17 12:04:11 status half-configured cloud-initramfs-copymods:all 0.27ubuntu1.2
2016-10-17 12:04:11 status installed cloud-initramfs-copymods:all 0.27ubuntu1.2
2016-10-17 12:04:11 status triggers-awaited cloud-initramfs-copymods:all 0.27ubuntu1.2
2016-10-17 12:04:11 configure cloud-initramfs-dyn-netconf:all 0.27ubuntu1.2 <none>
2016-10-17 12:04:11 status unpacked cloud-initramfs-dyn-netconf:all 0.27ubuntu1.2
2016-10-17 12:04:11 status half-configured cloud-initramfs-dyn-netconf:all 0.27ubuntu1.2
2016-10-17 12:04:11 status installed cloud-initramfs-dyn-netconf:all 0.27ubuntu1.2
2016-10-17 12:04:11 status triggers-awaited cloud-initramfs-dyn-netconf:all 0.27ubuntu1.2
2016-10-17 12:04:11 configure grub-legacy-ec2:all 0.7.8-1-g3705bb5-0ubuntu1~16.04.3 <none>
2016-10-17 12:04:11 status unpacked grub-legacy-ec2:all 0.7.8-1-g3705bb5-0ubuntu1~16.04.3
2016-10-17 12:04:11 status unpacked grub-legacy-ec2:all 0.7.8-1-g3705bb5-0ubuntu1~16.04.3
2016-10-17 12:04:11 status unpacked grub-legacy-ec2:all 0.7.8-1-g3705bb5-0ubuntu1~16.04.3
2016-10-17 12:04:11 status half-configured grub-legacy-ec2:all 0.7.8-1-g3705bb5-0ubuntu1~16.04.3
2016-10-17 12:04:12 status installed grub-legacy-ec2:all 0.7.8-1-g3705bb5-0ubuntu1~16.04.3
2016-10-17 12:04:12 configure overlayroot:all 0.27ubuntu1.2 <none>
2016-10-17 12:04:12 status unpacked overlayroot:all 0.27ubuntu1.2
2016-10-17 12:04:12 status unpacked overlayroot:all 0.27ubuntu1.2
2016-10-17 12:04:12 status unpacked overlayroot:all 0.27ubuntu1.2
2016-10-17 12:04:12 status half-configured overlayroot:all 0.27ubuntu1.2
2016-10-17 12:04:12 status installed overlayroot:all 0.27ubuntu1.2
2016-10-17 12:04:12 status triggers-awaited overlayroot:all 0.27ubuntu1.2
2016-10-17 12:04:12 trigproc initramfs-tools:all 0.122ubuntu8.3 <none>
2016-10-17 12:04:12 status half-configured initramfs-tools:all 0.122ubuntu8.3
2016-10-17 12:04:12 status installed overlayroot:all 0.27ubuntu1.2
2016-10-17 12:04:12 status installed cloud-initramfs-dyn-netconf:all 0.27ubuntu1.2
2016-10-17 12:04:12 status installed cloud-initramfs-copymods:all 0.27ubuntu1.2
2016-10-17 12:04:12 status installed open-iscsi:amd64 2.0.873+git0.3b4b4500-14ubuntu3.1
2016-10-17 12:04:24 status installed initramfs-tools:all 0.122ubuntu8.3
2016-10-17 12:04:24 startup packages configure
2016-10-30 22:55:58 startup archives unpack
2016-10-30 22:55:59 upgrade libc6-dev:amd64 2.23-0ubuntu3 2.23-0ubuntu4
2016-10-30 22:55:59 status half-configured libc6-dev:amd64 2.23-0ubuntu3
2016-10-30 22:55:59 status unpacked libc6-dev:amd64 2.23-0ubuntu3
2016-10-30 22:55:59 status half-installed libc6-dev:amd64 2.23-0ubuntu3
2016-10-30 22:56:00 status half-installed libc6-dev:amd64 2.23-0ubuntu3
2016-10-30 22:56:00 status unpacked libc6-dev:amd64 2.23-0ubuntu4
2016-10-30 22:56:00 status unpacked libc6-dev:amd64 2.23-0ubuntu4
2016-10-30 22:56:00 upgrade libc-dev-bin:amd64 2.23-0ubuntu3 2.23-0ubuntu4
2016-10-30 22:56:00 status half-configured libc-dev-bin:amd64 2.23-0ubuntu3
2016-10-30 22:56:00 status unpacked libc-dev-bin:amd64 2.23-0ubuntu3
2016-10-30 22:56:00 status half-installed libc-dev-bin:amd64 2.23-0ubuntu3
2016-10-30 22:56:00 status triggers-pending man-db:amd64 2.7.5-1
2016-10-30 22:56:00 status half-installed libc-dev-bin:amd64 2.23-0ubuntu3
2016-10-30 22:56:00 status unpacked libc-dev-bin:amd64 2.23-0ubuntu4
2016-10-30 22:56:00 status unpacked libc-dev-bin:amd64 2.23-0ubuntu4
2016-10-30 22:56:00 upgrade linux-libc-dev:amd64 4.4.0-43.63 4.4.0-45.66
2016-10-30 22:56:00 status half-configured linux-libc-dev:amd64 4.4.0-43.63
2016-10-30 22:56:00 status unpacked linux-libc-dev:amd64 4.4.0-43.63
2016-10-30 22:56:00 status half-installed linux-libc-dev:amd64 4.4.0-43.63
2016-10-30 22:56:01 status half-installed linux-libc-dev:amd64 4.4.0-43.63
2016-10-30 22:56:01 status unpacked linux-libc-dev:amd64 4.4.0-45.66
2016-10-30 22:56:01 status unpacked linux-libc-dev:amd64 4.4.0-45.66
2016-10-30 22:56:01 upgrade libc6:amd64 2.23-0ubuntu3 2.23-0ubuntu4
2016-10-30 22:56:01 status triggers-pending libc-bin:amd64 2.23-0ubuntu3
2016-10-30 22:56:01 status half-configured libc6:amd64 2.23-0ubuntu3
2016-10-30 22:56:01 status unpacked libc6:amd64 2.23-0ubuntu3
2016-10-30 22:56:01 status half-installed libc6:amd64 2.23-0ubuntu3
2016-10-30 22:56:02 status half-installed libc6:amd64 2.23-0ubuntu3
2016-10-30 22:56:02 status unpacked libc6:amd64 2.23-0ubuntu4
2016-10-30 22:56:02 status unpacked libc6:amd64 2.23-0ubuntu4
2016-10-30 22:56:02 startup packages configure
2016-10-30 22:56:02 configure libc6:amd64 2.23-0ubuntu4 <none>
2016-10-30 22:56:02 status unpacked libc6:amd64 2.23-0ubuntu4
2016-10-30 22:56:02 status unpacked libc6:amd64 2.23-0ubuntu4
2016-10-30 22:56:02 status half-configured libc6:amd64 2.23-0ubuntu4
2016-10-30 22:56:02 status installed libc6:amd64 2.23-0ubuntu4
2016-10-30 22:56:02 trigproc libc-bin:amd64 2.23-0ubuntu3 <none>
2016-10-30 22:56:02 status half-configured libc-bin:amd64 2.23-0ubuntu3
2016-10-30 22:56:02 status installed libc-bin:amd64 2.23-0ubuntu3
2016-10-30 22:56:02 trigproc man-db:amd64 2.7.5-1 <none>
2016-10-30 22:56:02 status half-configured man-db:amd64 2.7.5-1
2016-10-30 22:56:02 status installed man-db:amd64 2.7.5-1
2016-10-30 22:56:02 startup archives unpack
2016-10-30 22:56:02 upgrade locales:all 2.23-0ubuntu3 2.23-0ubuntu4
2016-10-30 22:56:02 status half-configured locales:all 2.23-0ubuntu3
2016-10-30 22:56:02 status unpacked locales:all 2.23-0ubuntu3
2016-10-30 22:56:02 status half-installed locales:all 2.23-0ubuntu3
2016-10-30 22:56:03 status triggers-pending man-db:amd64 2.7.5-1
2016-10-30 22:56:03 status half-installed locales:all 2.23-0ubuntu3
2016-10-30 22:56:03 status unpacked locales:all 2.23-0ubuntu4
2016-10-30 22:56:03 status unpacked locales:all 2.23-0ubuntu4
2016-10-30 22:56:03 upgrade libc-bin:amd64 2.23-0ubuntu3 2.23-0ubuntu4
2016-10-30 22:56:03 status half-configured libc-bin:amd64 2.23-0ubuntu3
2016-10-30 22:56:03 status unpacked libc-bin:amd64 2.23-0ubuntu3
2016-10-30 22:56:03 status half-installed libc-bin:amd64 2.23-0ubuntu3
2016-10-30 22:56:04 status half-installed libc-bin:amd64 2.23-0ubuntu3
2016-10-30 22:56:04 status unpacked libc-bin:amd64 2.23-0ubuntu4
2016-10-30 22:56:04 status unpacked libc-bin:amd64 2.23-0ubuntu4
2016-10-30 22:56:04 trigproc man-db:amd64 2.7.5-1 <none>
2016-10-30 22:56:04 status half-configured man-db:amd64 2.7.5-1
2016-10-30 22:56:04 status installed man-db:amd64 2.7.5-1
2016-10-30 22:56:04 startup packages configure
2016-10-30 22:56:04 configure libc-bin:amd64 2.23-0ubuntu4 <none>
2016-10-30 22:56:04 status unpacked libc-bin:amd64 2.23-0ubuntu4
2016-10-30 22:56:04 status unpacked libc-bin:amd64 2.23-0ubuntu4
2016-10-30 22:56:04 status unpacked libc-bin:amd64 2.23-0ubuntu4
2016-10-30 22:56:04 status unpacked libc-bin:amd64 2.23-0ubuntu4
2016-10-30 22:56:04 status unpacked libc-bin:amd64 2.23-0ubuntu4
2016-10-30 22:56:04 status unpacked libc-bin:amd64 2.23-0ubuntu4
2016-10-30 22:56:04 status half-configured libc-bin:amd64 2.23-0ubuntu4
2016-10-30 22:56:04 status installed libc-bin:amd64 2.23-0ubuntu4
2016-10-30 22:56:04 startup archives unpack
2016-10-30 22:56:04 upgrade libapparmor1:amd64 2.10.95-0ubuntu2.2 2.10.95-0ubuntu2.5
2016-10-30 22:56:04 status triggers-pending libc-bin:amd64 2.23-0ubuntu4
2016-10-30 22:56:04 status half-configured libapparmor1:amd64 2.10.95-0ubuntu2.2
2016-10-30 22:56:04 status unpacked libapparmor1:amd64 2.10.95-0ubuntu2.2
2016-10-30 22:56:04 status half-installed libapparmor1:amd64 2.10.95-0ubuntu2.2
2016-10-30 22:56:04 status half-installed libapparmor1:amd64 2.10.95-0ubuntu2.2
2016-10-30 22:56:04 status unpacked libapparmor1:amd64 2.10.95-0ubuntu2.5
2016-10-30 22:56:04 status unpacked libapparmor1:amd64 2.10.95-0ubuntu2.5
2016-10-30 22:56:04 trigproc libc-bin:amd64 2.23-0ubuntu4 <none>
2016-10-30 22:56:04 status half-configured libc-bin:amd64 2.23-0ubuntu4
2016-10-30 22:56:04 status installed libc-bin:amd64 2.23-0ubuntu4
2016-10-30 22:56:04 startup packages configure
2016-10-30 22:56:04 configure libapparmor1:amd64 2.10.95-0ubuntu2.5 <none>
2016-10-30 22:56:04 status triggers-pending libc-bin:amd64 2.23-0ubuntu4
2016-10-30 22:56:04 status unpacked libapparmor1:amd64 2.10.95-0ubuntu2.5
2016-10-30 22:56:04 status half-configured libapparmor1:amd64 2.10.95-0ubuntu2.5
2016-10-30 22:56:04 status installed libapparmor1:amd64 2.10.95-0ubuntu2.5
2016-10-30 22:56:04 trigproc libc-bin:amd64 2.23-0ubuntu4 <none>
2016-10-30 22:56:04 status half-configured libc-bin:amd64 2.23-0ubuntu4
2016-10-30 22:56:04 status installed libc-bin:amd64 2.23-0ubuntu4
2016-10-30 22:56:04 startup archives unpack
2016-10-30 22:56:04 upgrade libapparmor-perl:amd64 2.10.95-0ubuntu2.2 2.10.95-0ubuntu2.5
2016-10-30 22:56:04 status half-configured libapparmor-perl:amd64 2.10.95-0ubuntu2.2
2016-10-30 22:56:04 status unpacked libapparmor-perl:amd64 2.10.95-0ubuntu2.2
2016-10-30 22:56:04 status half-installed libapparmor-perl:amd64 2.10.95-0ubuntu2.2
2016-10-30 22:56:04 status half-installed libapparmor-perl:amd64 2.10.95-0ubuntu2.2
2016-10-30 22:56:04 status unpacked libapparmor-perl:amd64 2.10.95-0ubuntu2.5
2016-10-30 22:56:04 status unpacked libapparmor-perl:amd64 2.10.95-0ubuntu2.5
2016-10-30 22:56:04 upgrade initramfs-tools:all 0.122ubuntu8.3 0.122ubuntu8.5
2016-10-30 22:56:04 status half-configured initramfs-tools:all 0.122ubuntu8.3
2016-10-30 22:56:04 status unpacked initramfs-tools:all 0.122ubuntu8.3
2016-10-30 22:56:04 status half-installed initramfs-tools:all 0.122ubuntu8.3
2016-10-30 22:56:04 status triggers-pending man-db:amd64 2.7.5-1
2016-10-30 22:56:05 status half-installed initramfs-tools:all 0.122ubuntu8.3
2016-10-30 22:56:05 status unpacked initramfs-tools:all 0.122ubuntu8.5
2016-10-30 22:56:05 status unpacked initramfs-tools:all 0.122ubuntu8.5
2016-10-30 22:56:05 upgrade initramfs-tools-core:all 0.122ubuntu8.3 0.122ubuntu8.5
2016-10-30 22:56:05 status half-configured initramfs-tools-core:all 0.122ubuntu8.3
2016-10-30 22:56:05 status unpacked initramfs-tools-core:all 0.122ubuntu8.3
2016-10-30 22:56:05 status half-installed initramfs-tools-core:all 0.122ubuntu8.3
2016-10-30 22:56:05 status half-installed initramfs-tools-core:all 0.122ubuntu8.3
2016-10-30 22:56:05 status unpacked initramfs-tools-core:all 0.122ubuntu8.5
2016-10-30 22:56:05 status unpacked initramfs-tools-core:all 0.122ubuntu8.5
2016-10-30 22:56:05 upgrade initramfs-tools-bin:amd64 0.122ubuntu8.3 0.122ubuntu8.5
2016-10-30 22:56:05 status half-configured initramfs-tools-bin:amd64 0.122ubuntu8.3
2016-10-30 22:56:05 status unpacked initramfs-tools-bin:amd64 0.122ubuntu8.3
2016-10-30 22:56:05 status half-installed initramfs-tools-bin:amd64 0.122ubuntu8.3
2016-10-30 22:56:05 status half-installed initramfs-tools-bin:amd64 0.122ubuntu8.3
2016-10-30 22:56:05 status unpacked initramfs-tools-bin:amd64 0.122ubuntu8.5
2016-10-30 22:56:05 status unpacked initramfs-tools-bin:amd64 0.122ubuntu8.5
2016-10-30 22:56:05 upgrade apparmor:amd64 2.10.95-0ubuntu2.2 2.10.95-0ubuntu2.5
2016-10-30 22:56:05 status half-configured apparmor:amd64 2.10.95-0ubuntu2.2
2016-10-30 22:56:05 status unpacked apparmor:amd64 2.10.95-0ubuntu2.2
2016-10-30 22:56:05 status half-installed apparmor:amd64 2.10.95-0ubuntu2.2
2016-10-30 22:56:05 status triggers-pending systemd:amd64 229-4ubuntu11
2016-10-30 22:56:05 status triggers-pending ureadahead:amd64 0.100.0-19
2016-10-30 22:56:05 status triggers-pending ureadahead:amd64 0.100.0-19
2016-10-30 22:56:05 status half-installed apparmor:amd64 2.10.95-0ubuntu2.2
2016-10-30 22:56:05 status unpacked apparmor:amd64 2.10.95-0ubuntu2.5
2016-10-30 22:56:05 status unpacked apparmor:amd64 2.10.95-0ubuntu2.5
2016-10-30 22:56:05 upgrade liblxc1:amd64 2.0.4-0ubuntu1~ubuntu16.04.2 2.0.5-0ubuntu1~ubuntu16.04.2
2016-10-30 22:56:05 status triggers-pending libc-bin:amd64 2.23-0ubuntu4
2016-10-30 22:56:05 status half-configured liblxc1:amd64 2.0.4-0ubuntu1~ubuntu16.04.2
2016-10-30 22:56:05 status unpacked liblxc1:amd64 2.0.4-0ubuntu1~ubuntu16.04.2
2016-10-30 22:56:05 status half-installed liblxc1:amd64 2.0.4-0ubuntu1~ubuntu16.04.2
2016-10-30 22:56:05 status half-installed liblxc1:amd64 2.0.4-0ubuntu1~ubuntu16.04.2
2016-10-30 22:56:05 status unpacked liblxc1:amd64 2.0.5-0ubuntu1~ubuntu16.04.2
2016-10-30 22:56:05 status unpacked liblxc1:amd64 2.0.5-0ubuntu1~ubuntu16.04.2
2016-10-30 22:56:05 upgrade lxc-common:amd64 2.0.4-0ubuntu1~ubuntu16.04.2 2.0.5-0ubuntu1~ubuntu16.04.2
2016-10-30 22:56:05 status half-configured lxc-common:amd64 2.0.4-0ubuntu1~ubuntu16.04.2
2016-10-30 22:56:05 status unpacked lxc-common:amd64 2.0.4-0ubuntu1~ubuntu16.04.2
2016-10-30 22:56:05 status half-installed lxc-common:amd64 2.0.4-0ubuntu1~ubuntu16.04.2
2016-10-30 22:56:05 status half-installed lxc-common:amd64 2.0.4-0ubuntu1~ubuntu16.04.2
2016-10-30 22:56:05 status unpacked lxc-common:amd64 2.0.5-0ubuntu1~ubuntu16.04.2
2016-10-30 22:56:05 status unpacked lxc-common:amd64 2.0.5-0ubuntu1~ubuntu16.04.2
2016-10-30 22:56:05 upgrade lxcfs:amd64 2.0.3-0ubuntu1~ubuntu16.04.1 2.0.4-0ubuntu1~ubuntu16.04.1
2016-10-30 22:56:05 status half-configured lxcfs:amd64 2.0.3-0ubuntu1~ubuntu16.04.1
2016-10-30 22:56:05 status unpacked lxcfs:amd64 2.0.3-0ubuntu1~ubuntu16.04.1
2016-10-30 22:56:05 status half-installed lxcfs:amd64 2.0.3-0ubuntu1~ubuntu16.04.1
2016-10-30 22:56:05 status half-installed lxcfs:amd64 2.0.3-0ubuntu1~ubuntu16.04.1
2016-10-30 22:56:06 status unpacked lxcfs:amd64 2.0.4-0ubuntu1~ubuntu16.04.1
2016-10-30 22:56:06 status unpacked lxcfs:amd64 2.0.4-0ubuntu1~ubuntu16.04.1
2016-10-30 22:56:06 upgrade lxd:amd64 2.0.4-0ubuntu1~ubuntu16.04.1 2.0.5-0ubuntu1~ubuntu16.04.1
2016-10-30 22:56:06 status half-configured lxd:amd64 2.0.4-0ubuntu1~ubuntu16.04.1
2016-10-30 22:56:06 status unpacked lxd:amd64 2.0.4-0ubuntu1~ubuntu16.04.1
2016-10-30 22:56:06 status half-installed lxd:amd64 2.0.4-0ubuntu1~ubuntu16.04.1
2016-10-30 22:56:06 status half-installed lxd:amd64 2.0.4-0ubuntu1~ubuntu16.04.1
2016-10-30 22:56:07 status unpacked lxd:amd64 2.0.5-0ubuntu1~ubuntu16.04.1
2016-10-30 22:56:07 status unpacked lxd:amd64 2.0.5-0ubuntu1~ubuntu16.04.1
2016-10-30 22:56:07 upgrade multiarch-support:amd64 2.23-0ubuntu3 2.23-0ubuntu4
2016-10-30 22:56:07 status half-configured multiarch-support:amd64 2.23-0ubuntu3
2016-10-30 22:56:07 status unpacked multiarch-support:amd64 2.23-0ubuntu3
2016-10-30 22:56:07 status half-installed multiarch-support:amd64 2.23-0ubuntu3
2016-10-30 22:56:07 status half-installed multiarch-support:amd64 2.23-0ubuntu3
2016-10-30 22:56:07 status unpacked multiarch-support:amd64 2.23-0ubuntu4
2016-10-30 22:56:07 status unpacked multiarch-support:amd64 2.23-0ubuntu4
2016-10-30 22:56:07 trigproc man-db:amd64 2.7.5-1 <none>
2016-10-30 22:56:07 status half-configured man-db:amd64 2.7.5-1
2016-10-30 22:56:07 status installed man-db:amd64 2.7.5-1
2016-10-30 22:56:07 trigproc systemd:amd64 229-4ubuntu11 <none>
2016-10-30 22:56:07 status half-configured systemd:amd64 229-4ubuntu11
2016-10-30 22:56:07 status installed systemd:amd64 229-4ubuntu11
2016-10-30 22:56:07 trigproc ureadahead:amd64 0.100.0-19 <none>
2016-10-30 22:56:07 status half-configured ureadahead:amd64 0.100.0-19
2016-10-30 22:56:07 status installed ureadahead:amd64 0.100.0-19
2016-10-30 22:56:07 trigproc libc-bin:amd64 2.23-0ubuntu4 <none>
2016-10-30 22:56:07 status half-configured libc-bin:amd64 2.23-0ubuntu4
2016-10-30 22:56:07 status installed libc-bin:amd64 2.23-0ubuntu4
2016-10-30 22:56:07 startup packages configure
2016-10-30 22:56:07 configure multiarch-support:amd64 2.23-0ubuntu4 <none>
2016-10-30 22:56:07 status unpacked multiarch-support:amd64 2.23-0ubuntu4
2016-10-30 22:56:07 status half-configured multiarch-support:amd64 2.23-0ubuntu4
2016-10-30 22:56:07 status installed multiarch-support:amd64 2.23-0ubuntu4
2016-10-30 22:56:07 startup archives unpack
2016-10-30 22:56:08 upgrade tzdata:all 2016g-0ubuntu0.16.04 2016h-0ubuntu0.16.04
2016-10-30 22:56:08 status half-configured tzdata:all 2016g-0ubuntu0.16.04
2016-10-30 22:56:08 status unpacked tzdata:all 2016g-0ubuntu0.16.04
2016-10-30 22:56:08 status half-installed tzdata:all 2016g-0ubuntu0.16.04
2016-10-30 22:56:08 status half-installed tzdata:all 2016g-0ubuntu0.16.04
2016-10-30 22:56:08 status unpacked tzdata:all 2016h-0ubuntu0.16.04
2016-10-30 22:56:08 status unpacked tzdata:all 2016h-0ubuntu0.16.04
2016-10-30 22:56:08 upgrade distro-info-data:all 0.28ubuntu0.1 0.28ubuntu0.2
2016-10-30 22:56:08 status half-configured distro-info-data:all 0.28ubuntu0.1
2016-10-30 22:56:08 status unpacked distro-info-data:all 0.28ubuntu0.1
2016-10-30 22:56:08 status half-installed distro-info-data:all 0.28ubuntu0.1
2016-10-30 22:56:08 status half-installed distro-info-data:all 0.28ubuntu0.1
2016-10-30 22:56:08 status unpacked distro-info-data:all 0.28ubuntu0.2
2016-10-30 22:56:08 status unpacked distro-info-data:all 0.28ubuntu0.2
2016-10-30 22:56:08 upgrade ubuntu-release-upgrader-core:all 1:16.04.16 1:16.04.17
2016-10-30 22:56:08 status half-configured ubuntu-release-upgrader-core:all 1:16.04.16
2016-10-30 22:56:08 status unpacked ubuntu-release-upgrader-core:all 1:16.04.16
2016-10-30 22:56:08 status half-installed ubuntu-release-upgrader-core:all 1:16.04.16
2016-10-30 22:56:09 status triggers-pending man-db:amd64 2.7.5-1
2016-10-30 22:56:09 status half-installed ubuntu-release-upgrader-core:all 1:16.04.16
2016-10-30 22:56:09 status unpacked ubuntu-release-upgrader-core:all 1:16.04.17
2016-10-30 22:56:09 status unpacked ubuntu-release-upgrader-core:all 1:16.04.17
2016-10-30 22:56:09 upgrade python3-distupgrade:all 1:16.04.16 1:16.04.17
2016-10-30 22:56:09 status half-configured python3-distupgrade:all 1:16.04.16
2016-10-30 22:56:09 status unpacked python3-distupgrade:all 1:16.04.16
2016-10-30 22:56:09 status half-installed python3-distupgrade:all 1:16.04.16
2016-10-30 22:56:09 status half-installed python3-distupgrade:all 1:16.04.16
2016-10-30 22:56:09 status unpacked python3-distupgrade:all 1:16.04.17
2016-10-30 22:56:09 status unpacked python3-distupgrade:all 1:16.04.17
2016-10-30 22:56:09 upgrade google-cloud-sdk:all 130.0.0-0 132.0.0-0
2016-10-30 22:56:09 status half-configured google-cloud-sdk:all 130.0.0-0
2016-10-30 22:56:09 status unpacked google-cloud-sdk:all 130.0.0-0
2016-10-30 22:56:09 status half-installed google-cloud-sdk:all 130.0.0-0
2016-10-30 22:56:16 status half-installed google-cloud-sdk:all 130.0.0-0
2016-10-30 22:56:16 status unpacked google-cloud-sdk:all 132.0.0-0
2016-10-30 22:56:16 status unpacked google-cloud-sdk:all 132.0.0-0
2016-10-30 22:56:16 upgrade lxd-client:amd64 2.0.4-0ubuntu1~ubuntu16.04.1 2.0.5-0ubuntu1~ubuntu16.04.1
2016-10-30 22:56:16 status half-configured lxd-client:amd64 2.0.4-0ubuntu1~ubuntu16.04.1
2016-10-30 22:56:16 status unpacked lxd-client:amd64 2.0.4-0ubuntu1~ubuntu16.04.1
2016-10-30 22:56:16 status half-installed lxd-client:amd64 2.0.4-0ubuntu1~ubuntu16.04.1
2016-10-30 22:56:17 status half-installed lxd-client:amd64 2.0.4-0ubuntu1~ubuntu16.04.1
2016-10-30 22:56:17 status unpacked lxd-client:amd64 2.0.5-0ubuntu1~ubuntu16.04.1
2016-10-30 22:56:17 status unpacked lxd-client:amd64 2.0.5-0ubuntu1~ubuntu16.04.1
2016-10-30 22:56:17 upgrade nginx:all 1.10.0-0ubuntu0.16.04.2 1.10.0-0ubuntu0.16.04.4
2016-10-30 22:56:17 status half-configured nginx:all 1.10.0-0ubuntu0.16.04.2
2016-10-30 22:56:17 status unpacked nginx:all 1.10.0-0ubuntu0.16.04.2
2016-10-30 22:56:17 status half-installed nginx:all 1.10.0-0ubuntu0.16.04.2
2016-10-30 22:56:17 status half-installed nginx:all 1.10.0-0ubuntu0.16.04.2
2016-10-30 22:56:17 status unpacked nginx:all 1.10.0-0ubuntu0.16.04.4
2016-10-30 22:56:17 status unpacked nginx:all 1.10.0-0ubuntu0.16.04.4
2016-10-30 22:56:17 upgrade nginx-core:amd64 1.10.0-0ubuntu0.16.04.2 1.10.0-0ubuntu0.16.04.4
2016-10-30 22:56:17 status half-configured nginx-core:amd64 1.10.0-0ubuntu0.16.04.2
2016-10-30 22:56:17 status unpacked nginx-core:amd64 1.10.0-0ubuntu0.16.04.2
2016-10-30 22:56:17 status half-installed nginx-core:amd64 1.10.0-0ubuntu0.16.04.2
2016-10-30 22:56:17 status half-installed nginx-core:amd64 1.10.0-0ubuntu0.16.04.2
2016-10-30 22:56:17 status unpacked nginx-core:amd64 1.10.0-0ubuntu0.16.04.4
2016-10-30 22:56:17 status unpacked nginx-core:amd64 1.10.0-0ubuntu0.16.04.4
2016-10-30 22:56:17 upgrade nginx-common:all 1.10.0-0ubuntu0.16.04.2 1.10.0-0ubuntu0.16.04.4
2016-10-30 22:56:17 status half-configured nginx-common:all 1.10.0-0ubuntu0.16.04.2
2016-10-30 22:56:17 status unpacked nginx-common:all 1.10.0-0ubuntu0.16.04.2
2016-10-30 22:56:17 status half-installed nginx-common:all 1.10.0-0ubuntu0.16.04.2
2016-10-30 22:56:17 status triggers-pending ufw:all 0.35-0ubuntu2
2016-10-30 22:56:17 status triggers-pending ureadahead:amd64 0.100.0-19
2016-10-30 22:56:17 status triggers-pending systemd:amd64 229-4ubuntu11
2016-10-30 22:56:17 status triggers-pending ureadahead:amd64 0.100.0-19
2016-10-30 22:56:17 status half-installed nginx-common:all 1.10.0-0ubuntu0.16.04.2
2016-10-30 22:56:17 status unpacked nginx-common:all 1.10.0-0ubuntu0.16.04.4
2016-10-30 22:56:17 status unpacked nginx-common:all 1.10.0-0ubuntu0.16.04.4
2016-10-30 22:56:17 upgrade snapd:amd64 2.15.2ubuntu1 2.16ubuntu3
2016-10-30 22:56:17 status half-configured snapd:amd64 2.15.2ubuntu1
2016-10-30 22:56:17 status unpacked snapd:amd64 2.15.2ubuntu1
2016-10-30 22:56:17 status half-installed snapd:amd64 2.15.2ubuntu1
2016-10-30 22:56:18 status half-installed snapd:amd64 2.15.2ubuntu1
2016-10-30 22:56:19 status unpacked snapd:amd64 2.16ubuntu3
2016-10-30 22:56:19 status unpacked snapd:amd64 2.16ubuntu3
2016-10-30 22:56:19 upgrade vlan:amd64 1.9-3.2ubuntu1 1.9-3.2ubuntu1.16.04.1
2016-10-30 22:56:19 status half-configured vlan:amd64 1.9-3.2ubuntu1
2016-10-30 22:56:19 status unpacked vlan:amd64 1.9-3.2ubuntu1
2016-10-30 22:56:19 status half-installed vlan:amd64 1.9-3.2ubuntu1
2016-10-30 22:56:19 status half-installed vlan:amd64 1.9-3.2ubuntu1
2016-10-30 22:56:19 status unpacked vlan:amd64 1.9-3.2ubuntu1.16.04.1
2016-10-30 22:56:19 status unpacked vlan:amd64 1.9-3.2ubuntu1.16.04.1
2016-10-30 22:56:19 trigproc man-db:amd64 2.7.5-1 <none>
2016-10-30 22:56:19 status half-configured man-db:amd64 2.7.5-1
2016-10-30 22:56:21 status installed man-db:amd64 2.7.5-1
2016-10-30 22:56:21 trigproc ufw:all 0.35-0ubuntu2 <none>
2016-10-30 22:56:21 status half-configured ufw:all 0.35-0ubuntu2
2016-10-30 22:56:21 status installed ufw:all 0.35-0ubuntu2
2016-10-30 22:56:21 trigproc ureadahead:amd64 0.100.0-19 <none>
2016-10-30 22:56:21 status half-configured ureadahead:amd64 0.100.0-19
2016-10-30 22:56:21 status installed ureadahead:amd64 0.100.0-19
2016-10-30 22:56:21 trigproc systemd:amd64 229-4ubuntu11 <none>
2016-10-30 22:56:21 status half-configured systemd:amd64 229-4ubuntu11
2016-10-30 22:56:22 status installed systemd:amd64 229-4ubuntu11
2016-10-30 22:56:22 startup packages configure
2016-10-30 22:56:22 configure libc-dev-bin:amd64 2.23-0ubuntu4 <none>
2016-10-30 22:56:22 status unpacked libc-dev-bin:amd64 2.23-0ubuntu4
2016-10-30 22:56:22 status half-configured libc-dev-bin:amd64 2.23-0ubuntu4
2016-10-30 22:56:22 status installed libc-dev-bin:amd64 2.23-0ubuntu4
2016-10-30 22:56:22 configure linux-libc-dev:amd64 4.4.0-45.66 <none>
2016-10-30 22:56:22 status unpacked linux-libc-dev:amd64 4.4.0-45.66
2016-10-30 22:56:22 status half-configured linux-libc-dev:amd64 4.4.0-45.66
2016-10-30 22:56:22 status installed linux-libc-dev:amd64 4.4.0-45.66
2016-10-30 22:56:22 configure libc6-dev:amd64 2.23-0ubuntu4 <none>
2016-10-30 22:56:22 status unpacked libc6-dev:amd64 2.23-0ubuntu4
2016-10-30 22:56:22 status half-configured libc6-dev:amd64 2.23-0ubuntu4
2016-10-30 22:56:22 status installed libc6-dev:amd64 2.23-0ubuntu4
2016-10-30 22:56:22 configure locales:all 2.23-0ubuntu4 <none>
2016-10-30 22:56:22 status unpacked locales:all 2.23-0ubuntu4
2016-10-30 22:56:22 status unpacked locales:all 2.23-0ubuntu4
2016-10-30 22:56:22 status half-configured locales:all 2.23-0ubuntu4
2016-10-30 22:56:24 status installed locales:all 2.23-0ubuntu4
2016-10-30 22:56:24 configure libapparmor-perl:amd64 2.10.95-0ubuntu2.5 <none>
2016-10-30 22:56:24 status unpacked libapparmor-perl:amd64 2.10.95-0ubuntu2.5
2016-10-30 22:56:24 status half-configured libapparmor-perl:amd64 2.10.95-0ubuntu2.5
2016-10-30 22:56:24 status installed libapparmor-perl:amd64 2.10.95-0ubuntu2.5
2016-10-30 22:56:24 configure initramfs-tools-bin:amd64 0.122ubuntu8.5 <none>
2016-10-30 22:56:24 status unpacked initramfs-tools-bin:amd64 0.122ubuntu8.5
2016-10-30 22:56:24 status half-configured initramfs-tools-bin:amd64 0.122ubuntu8.5
2016-10-30 22:56:24 status installed initramfs-tools-bin:amd64 0.122ubuntu8.5
2016-10-30 22:56:24 configure initramfs-tools-core:all 0.122ubuntu8.5 <none>
2016-10-30 22:56:24 status unpacked initramfs-tools-core:all 0.122ubuntu8.5
2016-10-30 22:56:24 status unpacked initramfs-tools-core:all 0.122ubuntu8.5
2016-10-30 22:56:24 status half-configured initramfs-tools-core:all 0.122ubuntu8.5
2016-10-30 22:56:24 status installed initramfs-tools-core:all 0.122ubuntu8.5
2016-10-30 22:56:24 configure initramfs-tools:all 0.122ubuntu8.5 <none>
2016-10-30 22:56:24 status unpacked initramfs-tools:all 0.122ubuntu8.5
2016-10-30 22:56:24 status unpacked initramfs-tools:all 0.122ubuntu8.5
2016-10-30 22:56:24 status unpacked initramfs-tools:all 0.122ubuntu8.5
2016-10-30 22:56:24 status unpacked initramfs-tools:all 0.122ubuntu8.5
2016-10-30 22:56:24 status half-configured initramfs-tools:all 0.122ubuntu8.5
2016-10-30 22:56:24 status installed initramfs-tools:all 0.122ubuntu8.5
2016-10-30 22:56:24 status triggers-pending initramfs-tools:all 0.122ubuntu8.5
2016-10-30 22:56:24 configure apparmor:amd64 2.10.95-0ubuntu2.5 <none>
2016-10-30 22:56:24 status unpacked apparmor:amd64 2.10.95-0ubuntu2.5
2016-10-30 22:56:24 status unpacked apparmor:amd64 2.10.95-0ubuntu2.5
2016-10-30 22:56:24 status unpacked apparmor:amd64 2.10.95-0ubuntu2.5
2016-10-30 22:56:24 status unpacked apparmor:amd64 2.10.95-0ubuntu2.5
2016-10-30 22:56:24 status unpacked apparmor:amd64 2.10.95-0ubuntu2.5
2016-10-30 22:56:24 status unpacked apparmor:amd64 2.10.95-0ubuntu2.5
2016-10-30 22:56:24 status unpacked apparmor:amd64 2.10.95-0ubuntu2.5
2016-10-30 22:56:24 status unpacked apparmor:amd64 2.10.95-0ubuntu2.5
2016-10-30 22:56:24 status unpacked apparmor:amd64 2.10.95-0ubuntu2.5
2016-10-30 22:56:24 status unpacked apparmor:amd64 2.10.95-0ubuntu2.5
2016-10-30 22:56:24 status unpacked apparmor:amd64 2.10.95-0ubuntu2.5
2016-10-30 22:56:24 status unpacked apparmor:amd64 2.10.95-0ubuntu2.5
2016-10-30 22:56:24 status unpacked apparmor:amd64 2.10.95-0ubuntu2.5
2016-10-30 22:56:24 status unpacked apparmor:amd64 2.10.95-0ubuntu2.5
2016-10-30 22:56:24 status unpacked apparmor:amd64 2.10.95-0ubuntu2.5
2016-10-30 22:56:24 status unpacked apparmor:amd64 2.10.95-0ubuntu2.5
2016-10-30 22:56:24 status unpacked apparmor:amd64 2.10.95-0ubuntu2.5
2016-10-30 22:56:24 status unpacked apparmor:amd64 2.10.95-0ubuntu2.5
2016-10-30 22:56:24 status unpacked apparmor:amd64 2.10.95-0ubuntu2.5
2016-10-30 22:56:24 status unpacked apparmor:amd64 2.10.95-0ubuntu2.5
2016-10-30 22:56:24 status unpacked apparmor:amd64 2.10.95-0ubuntu2.5
2016-10-30 22:56:24 status unpacked apparmor:amd64 2.10.95-0ubuntu2.5
2016-10-30 22:56:24 status unpacked apparmor:amd64 2.10.95-0ubuntu2.5
2016-10-30 22:56:24 status unpacked apparmor:amd64 2.10.95-0ubuntu2.5
2016-10-30 22:56:24 status unpacked apparmor:amd64 2.10.95-0ubuntu2.5
2016-10-30 22:56:24 status unpacked apparmor:amd64 2.10.95-0ubuntu2.5
2016-10-30 22:56:24 status unpacked apparmor:amd64 2.10.95-0ubuntu2.5
2016-10-30 22:56:24 status unpacked apparmor:amd64 2.10.95-0ubuntu2.5
2016-10-30 22:56:24 status unpacked apparmor:amd64 2.10.95-0ubuntu2.5
2016-10-30 22:56:24 status unpacked apparmor:amd64 2.10.95-0ubuntu2.5
2016-10-30 22:56:24 status unpacked apparmor:amd64 2.10.95-0ubuntu2.5
2016-10-30 22:56:24 status unpacked apparmor:amd64 2.10.95-0ubuntu2.5
2016-10-30 22:56:24 status unpacked apparmor:amd64 2.10.95-0ubuntu2.5
2016-10-30 22:56:24 status unpacked apparmor:amd64 2.10.95-0ubuntu2.5
2016-10-30 22:56:24 status unpacked apparmor:amd64 2.10.95-0ubuntu2.5
2016-10-30 22:56:24 status unpacked apparmor:amd64 2.10.95-0ubuntu2.5
2016-10-30 22:56:24 status unpacked apparmor:amd64 2.10.95-0ubuntu2.5
2016-10-30 22:56:24 status unpacked apparmor:amd64 2.10.95-0ubuntu2.5
2016-10-30 22:56:24 status unpacked apparmor:amd64 2.10.95-0ubuntu2.5
2016-10-30 22:56:24 status unpacked apparmor:amd64 2.10.95-0ubuntu2.5
2016-10-30 22:56:24 status unpacked apparmor:amd64 2.10.95-0ubuntu2.5
2016-10-30 22:56:24 status unpacked apparmor:amd64 2.10.95-0ubuntu2.5
2016-10-30 22:56:24 status unpacked apparmor:amd64 2.10.95-0ubuntu2.5
2016-10-30 22:56:24 status unpacked apparmor:amd64 2.10.95-0ubuntu2.5
2016-10-30 22:56:24 status unpacked apparmor:amd64 2.10.95-0ubuntu2.5
2016-10-30 22:56:24 status unpacked apparmor:amd64 2.10.95-0ubuntu2.5
2016-10-30 22:56:24 status unpacked apparmor:amd64 2.10.95-0ubuntu2.5
2016-10-30 22:56:24 status unpacked apparmor:amd64 2.10.95-0ubuntu2.5
2016-10-30 22:56:24 status unpacked apparmor:amd64 2.10.95-0ubuntu2.5
2016-10-30 22:56:24 status unpacked apparmor:amd64 2.10.95-0ubuntu2.5
2016-10-30 22:56:24 status unpacked apparmor:amd64 2.10.95-0ubuntu2.5
2016-10-30 22:56:24 status unpacked apparmor:amd64 2.10.95-0ubuntu2.5
2016-10-30 22:56:24 status unpacked apparmor:amd64 2.10.95-0ubuntu2.5
2016-10-30 22:56:24 status unpacked apparmor:amd64 2.10.95-0ubuntu2.5
2016-10-30 22:56:24 status unpacked apparmor:amd64 2.10.95-0ubuntu2.5
2016-10-30 22:56:24 status unpacked apparmor:amd64 2.10.95-0ubuntu2.5
2016-10-30 22:56:24 status unpacked apparmor:amd64 2.10.95-0ubuntu2.5
2016-10-30 22:56:24 status unpacked apparmor:amd64 2.10.95-0ubuntu2.5
2016-10-30 22:56:24 status unpacked apparmor:amd64 2.10.95-0ubuntu2.5
2016-10-30 22:56:24 status unpacked apparmor:amd64 2.10.95-0ubuntu2.5
2016-10-30 22:56:24 status unpacked apparmor:amd64 2.10.95-0ubuntu2.5
2016-10-30 22:56:24 status unpacked apparmor:amd64 2.10.95-0ubuntu2.5
2016-10-30 22:56:24 status unpacked apparmor:amd64 2.10.95-0ubuntu2.5
2016-10-30 22:56:24 status unpacked apparmor:amd64 2.10.95-0ubuntu2.5
2016-10-30 22:56:24 status unpacked apparmor:amd64 2.10.95-0ubuntu2.5
2016-10-30 22:56:24 status unpacked apparmor:amd64 2.10.95-0ubuntu2.5
2016-10-30 22:56:24 status unpacked apparmor:amd64 2.10.95-0ubuntu2.5
2016-10-30 22:56:24 status unpacked apparmor:amd64 2.10.95-0ubuntu2.5
2016-10-30 22:56:24 status unpacked apparmor:amd64 2.10.95-0ubuntu2.5
2016-10-30 22:56:24 status unpacked apparmor:amd64 2.10.95-0ubuntu2.5
2016-10-30 22:56:24 status unpacked apparmor:amd64 2.10.95-0ubuntu2.5
2016-10-30 22:56:24 status unpacked apparmor:amd64 2.10.95-0ubuntu2.5
2016-10-30 22:56:24 status unpacked apparmor:amd64 2.10.95-0ubuntu2.5
2016-10-30 22:56:24 status unpacked apparmor:amd64 2.10.95-0ubuntu2.5
2016-10-30 22:56:24 status unpacked apparmor:amd64 2.10.95-0ubuntu2.5
2016-10-30 22:56:24 status unpacked apparmor:amd64 2.10.95-0ubuntu2.5
2016-10-30 22:56:24 status unpacked apparmor:amd64 2.10.95-0ubuntu2.5
2016-10-30 22:56:24 status unpacked apparmor:amd64 2.10.95-0ubuntu2.5
2016-10-30 22:56:24 status unpacked apparmor:amd64 2.10.95-0ubuntu2.5
2016-10-30 22:56:24 status unpacked apparmor:amd64 2.10.95-0ubuntu2.5
2016-10-30 22:56:24 status unpacked apparmor:amd64 2.10.95-0ubuntu2.5
2016-10-30 22:56:24 status unpacked apparmor:amd64 2.10.95-0ubuntu2.5
2016-10-30 22:56:24 status unpacked apparmor:amd64 2.10.95-0ubuntu2.5
2016-10-30 22:56:24 status unpacked apparmor:amd64 2.10.95-0ubuntu2.5
2016-10-30 22:56:24 status unpacked apparmor:amd64 2.10.95-0ubuntu2.5
2016-10-30 22:56:24 status unpacked apparmor:amd64 2.10.95-0ubuntu2.5
2016-10-30 22:56:24 status unpacked apparmor:amd64 2.10.95-0ubuntu2.5
2016-10-30 22:56:24 status unpacked apparmor:amd64 2.10.95-0ubuntu2.5
2016-10-30 22:56:24 status unpacked apparmor:amd64 2.10.95-0ubuntu2.5
2016-10-30 22:56:24 status unpacked apparmor:amd64 2.10.95-0ubuntu2.5
2016-10-30 22:56:24 status unpacked apparmor:amd64 2.10.95-0ubuntu2.5
2016-10-30 22:56:24 status unpacked apparmor:amd64 2.10.95-0ubuntu2.5
2016-10-30 22:56:24 status unpacked apparmor:amd64 2.10.95-0ubuntu2.5
2016-10-30 22:56:24 status unpacked apparmor:amd64 2.10.95-0ubuntu2.5
2016-10-30 22:56:24 status unpacked apparmor:amd64 2.10.95-0ubuntu2.5
2016-10-30 22:56:24 status unpacked apparmor:amd64 2.10.95-0ubuntu2.5
2016-10-30 22:56:24 status unpacked apparmor:amd64 2.10.95-0ubuntu2.5
2016-10-30 22:56:24 status unpacked apparmor:amd64 2.10.95-0ubuntu2.5
2016-10-30 22:56:24 status unpacked apparmor:amd64 2.10.95-0ubuntu2.5
2016-10-30 22:56:24 status unpacked apparmor:amd64 2.10.95-0ubuntu2.5
2016-10-30 22:56:24 status unpacked apparmor:amd64 2.10.95-0ubuntu2.5
2016-10-30 22:56:24 status unpacked apparmor:amd64 2.10.95-0ubuntu2.5
2016-10-30 22:56:24 status unpacked apparmor:amd64 2.10.95-0ubuntu2.5
2016-10-30 22:56:24 status unpacked apparmor:amd64 2.10.95-0ubuntu2.5
2016-10-30 22:56:24 status triggers-pending systemd:amd64 229-4ubuntu11
2016-10-30 22:56:24 status triggers-pending ureadahead:amd64 0.100.0-19
2016-10-30 22:56:24 status unpacked apparmor:amd64 2.10.95-0ubuntu2.5
2016-10-30 22:56:24 status triggers-pending ureadahead:amd64 0.100.0-19
2016-10-30 22:56:24 status unpacked apparmor:amd64 2.10.95-0ubuntu2.5
2016-10-30 22:56:24 status half-configured apparmor:amd64 2.10.95-0ubuntu2.5
2016-10-30 22:56:26 status installed apparmor:amd64 2.10.95-0ubuntu2.5
2016-10-30 22:56:26 configure lxcfs:amd64 2.0.4-0ubuntu1~ubuntu16.04.1 <none>
2016-10-30 22:56:26 status unpacked lxcfs:amd64 2.0.4-0ubuntu1~ubuntu16.04.1
2016-10-30 22:56:26 status unpacked lxcfs:amd64 2.0.4-0ubuntu1~ubuntu16.04.1
2016-10-30 22:56:26 status unpacked lxcfs:amd64 2.0.4-0ubuntu1~ubuntu16.04.1
2016-10-30 22:56:26 status half-configured lxcfs:amd64 2.0.4-0ubuntu1~ubuntu16.04.1
2016-10-30 22:56:26 status installed lxcfs:amd64 2.0.4-0ubuntu1~ubuntu16.04.1
2016-10-30 22:56:26 configure tzdata:all 2016h-0ubuntu0.16.04 <none>
2016-10-30 22:56:26 status unpacked tzdata:all 2016h-0ubuntu0.16.04
2016-10-30 22:56:26 status half-configured tzdata:all 2016h-0ubuntu0.16.04
2016-10-30 22:56:27 status installed tzdata:all 2016h-0ubuntu0.16.04
2016-10-30 22:56:27 configure distro-info-data:all 0.28ubuntu0.2 <none>
2016-10-30 22:56:27 status unpacked distro-info-data:all 0.28ubuntu0.2
2016-10-30 22:56:27 status half-configured distro-info-data:all 0.28ubuntu0.2
2016-10-30 22:56:27 status installed distro-info-data:all 0.28ubuntu0.2
2016-10-30 22:56:27 configure python3-distupgrade:all 1:16.04.17 <none>
2016-10-30 22:56:27 status unpacked python3-distupgrade:all 1:16.04.17
2016-10-30 22:56:27 status half-configured python3-distupgrade:all 1:16.04.17
2016-10-30 22:56:27 status installed python3-distupgrade:all 1:16.04.17
2016-10-30 22:56:27 configure ubuntu-release-upgrader-core:all 1:16.04.17 <none>
2016-10-30 22:56:27 status unpacked ubuntu-release-upgrader-core:all 1:16.04.17
2016-10-30 22:56:27 status unpacked ubuntu-release-upgrader-core:all 1:16.04.17
2016-10-30 22:56:27 status unpacked ubuntu-release-upgrader-core:all 1:16.04.17
2016-10-30 22:56:27 status unpacked ubuntu-release-upgrader-core:all 1:16.04.17
2016-10-30 22:56:27 status half-configured ubuntu-release-upgrader-core:all 1:16.04.17
2016-10-30 22:56:27 status installed ubuntu-release-upgrader-core:all 1:16.04.17
2016-10-30 22:56:27 configure google-cloud-sdk:all 132.0.0-0 <none>
2016-10-30 22:56:27 status unpacked google-cloud-sdk:all 132.0.0-0
2016-10-30 22:56:27 status half-configured google-cloud-sdk:all 132.0.0-0
2016-10-30 22:56:43 status installed google-cloud-sdk:all 132.0.0-0
2016-10-30 22:56:43 configure lxd-client:amd64 2.0.5-0ubuntu1~ubuntu16.04.1 <none>
2016-10-30 22:56:43 status unpacked lxd-client:amd64 2.0.5-0ubuntu1~ubuntu16.04.1
2016-10-30 22:56:43 status half-configured lxd-client:amd64 2.0.5-0ubuntu1~ubuntu16.04.1
2016-10-30 22:56:43 status installed lxd-client:amd64 2.0.5-0ubuntu1~ubuntu16.04.1
2016-10-30 22:56:43 configure nginx-common:all 1.10.0-0ubuntu0.16.04.4 <none>
2016-10-30 22:56:43 status unpacked nginx-common:all 1.10.0-0ubuntu0.16.04.4
2016-10-30 22:56:43 status unpacked nginx-common:all 1.10.0-0ubuntu0.16.04.4
2016-10-30 22:56:43 status unpacked nginx-common:all 1.10.0-0ubuntu0.16.04.4
2016-10-30 22:56:43 status unpacked nginx-common:all 1.10.0-0ubuntu0.16.04.4
2016-10-30 22:56:43 status unpacked nginx-common:all 1.10.0-0ubuntu0.16.04.4
2016-10-30 22:56:43 status unpacked nginx-common:all 1.10.0-0ubuntu0.16.04.4
2016-10-30 22:56:43 status unpacked nginx-common:all 1.10.0-0ubuntu0.16.04.4
2016-10-30 22:56:43 status unpacked nginx-common:all 1.10.0-0ubuntu0.16.04.4
2016-10-30 22:56:43 status unpacked nginx-common:all 1.10.0-0ubuntu0.16.04.4
2016-10-30 22:56:43 status unpacked nginx-common:all 1.10.0-0ubuntu0.16.04.4
2016-10-30 22:56:43 status unpacked nginx-common:all 1.10.0-0ubuntu0.16.04.4
2016-10-30 22:56:43 status unpacked nginx-common:all 1.10.0-0ubuntu0.16.04.4
2016-10-30 22:56:43 status unpacked nginx-common:all 1.10.0-0ubuntu0.16.04.4
2016-10-30 22:56:43 status unpacked nginx-common:all 1.10.0-0ubuntu0.16.04.4
2016-10-30 22:56:43 status unpacked nginx-common:all 1.10.0-0ubuntu0.16.04.4
2016-10-30 22:56:43 status unpacked nginx-common:all 1.10.0-0ubuntu0.16.04.4
2016-10-30 22:56:43 status unpacked nginx-common:all 1.10.0-0ubuntu0.16.04.4
2016-10-30 22:56:43 status unpacked nginx-common:all 1.10.0-0ubuntu0.16.04.4
2016-10-30 22:56:43 status unpacked nginx-common:all 1.10.0-0ubuntu0.16.04.4
2016-10-30 22:56:43 status half-configured nginx-common:all 1.10.0-0ubuntu0.16.04.4
2016-10-30 22:56:43 status installed nginx-common:all 1.10.0-0ubuntu0.16.04.4
2016-10-30 22:56:43 configure nginx-core:amd64 1.10.0-0ubuntu0.16.04.4 <none>
2016-10-30 22:56:43 status unpacked nginx-core:amd64 1.10.0-0ubuntu0.16.04.4
2016-10-30 22:56:43 status half-configured nginx-core:amd64 1.10.0-0ubuntu0.16.04.4
2016-10-30 22:56:44 status installed nginx-core:amd64 1.10.0-0ubuntu0.16.04.4
2016-10-30 22:56:44 configure nginx:all 1.10.0-0ubuntu0.16.04.4 <none>
2016-10-30 22:56:44 status unpacked nginx:all 1.10.0-0ubuntu0.16.04.4
2016-10-30 22:56:44 status half-configured nginx:all 1.10.0-0ubuntu0.16.04.4
2016-10-30 22:56:44 status installed nginx:all 1.10.0-0ubuntu0.16.04.4
2016-10-30 22:56:44 configure snapd:amd64 2.16ubuntu3 <none>
2016-10-30 22:56:44 status unpacked snapd:amd64 2.16ubuntu3
2016-10-30 22:56:44 status unpacked snapd:amd64 2.16ubuntu3
2016-10-30 22:56:44 status unpacked snapd:amd64 2.16ubuntu3
2016-10-30 22:56:44 status half-configured snapd:amd64 2.16ubuntu3
2016-10-30 22:56:45 status installed snapd:amd64 2.16ubuntu3
2016-10-30 22:56:45 configure vlan:amd64 1.9-3.2ubuntu1.16.04.1 <none>
2016-10-30 22:56:45 status unpacked vlan:amd64 1.9-3.2ubuntu1.16.04.1
2016-10-30 22:56:45 status unpacked vlan:amd64 1.9-3.2ubuntu1.16.04.1
2016-10-30 22:56:45 status unpacked vlan:amd64 1.9-3.2ubuntu1.16.04.1
2016-10-30 22:56:45 status unpacked vlan:amd64 1.9-3.2ubuntu1.16.04.1
2016-10-30 22:56:45 status half-configured vlan:amd64 1.9-3.2ubuntu1.16.04.1
2016-10-30 22:56:45 status installed vlan:amd64 1.9-3.2ubuntu1.16.04.1
2016-10-30 22:56:45 configure liblxc1:amd64 2.0.5-0ubuntu1~ubuntu16.04.2 <none>
2016-10-30 22:56:45 status triggers-pending libc-bin:amd64 2.23-0ubuntu4
2016-10-30 22:56:45 status unpacked liblxc1:amd64 2.0.5-0ubuntu1~ubuntu16.04.2
2016-10-30 22:56:45 status half-configured liblxc1:amd64 2.0.5-0ubuntu1~ubuntu16.04.2
2016-10-30 22:56:45 status installed liblxc1:amd64 2.0.5-0ubuntu1~ubuntu16.04.2
2016-10-30 22:56:45 configure lxc-common:amd64 2.0.5-0ubuntu1~ubuntu16.04.2 <none>
2016-10-30 22:56:45 status unpacked lxc-common:amd64 2.0.5-0ubuntu1~ubuntu16.04.2
2016-10-30 22:56:46 status unpacked lxc-common:amd64 2.0.5-0ubuntu1~ubuntu16.04.2
2016-10-30 22:56:46 status unpacked lxc-common:amd64 2.0.5-0ubuntu1~ubuntu16.04.2
2016-10-30 22:56:46 status unpacked lxc-common:amd64 2.0.5-0ubuntu1~ubuntu16.04.2
2016-10-30 22:56:46 status unpacked lxc-common:amd64 2.0.5-0ubuntu1~ubuntu16.04.2
2016-10-30 22:56:46 status unpacked lxc-common:amd64 2.0.5-0ubuntu1~ubuntu16.04.2
2016-10-30 22:56:46 status unpacked lxc-common:amd64 2.0.5-0ubuntu1~ubuntu16.04.2
2016-10-30 22:56:46 status unpacked lxc-common:amd64 2.0.5-0ubuntu1~ubuntu16.04.2
2016-10-30 22:56:46 status unpacked lxc-common:amd64 2.0.5-0ubuntu1~ubuntu16.04.2
2016-10-30 22:56:46 status half-configured lxc-common:amd64 2.0.5-0ubuntu1~ubuntu16.04.2
2016-10-30 22:56:46 status installed lxc-common:amd64 2.0.5-0ubuntu1~ubuntu16.04.2
2016-10-30 22:56:46 configure lxd:amd64 2.0.5-0ubuntu1~ubuntu16.04.1 <none>
2016-10-30 22:56:46 status unpacked lxd:amd64 2.0.5-0ubuntu1~ubuntu16.04.1
2016-10-30 22:56:46 status unpacked lxd:amd64 2.0.5-0ubuntu1~ubuntu16.04.1
2016-10-30 22:56:46 status unpacked lxd:amd64 2.0.5-0ubuntu1~ubuntu16.04.1
2016-10-30 22:56:46 status unpacked lxd:amd64 2.0.5-0ubuntu1~ubuntu16.04.1
2016-10-30 22:56:46 status half-configured lxd:amd64 2.0.5-0ubuntu1~ubuntu16.04.1
2016-10-30 22:56:47 status installed lxd:amd64 2.0.5-0ubuntu1~ubuntu16.04.1
2016-10-30 22:56:47 trigproc initramfs-tools:all 0.122ubuntu8.5 <none>
2016-10-30 22:56:47 status half-configured initramfs-tools:all 0.122ubuntu8.5
2016-10-30 22:56:59 status installed initramfs-tools:all 0.122ubuntu8.5
2016-10-30 22:56:59 trigproc systemd:amd64 229-4ubuntu11 <none>
2016-10-30 22:56:59 status half-configured systemd:amd64 229-4ubuntu11
2016-10-30 22:57:00 status installed systemd:amd64 229-4ubuntu11
2016-10-30 22:57:00 trigproc ureadahead:amd64 0.100.0-19 <none>
2016-10-30 22:57:00 status half-configured ureadahead:amd64 0.100.0-19
2016-10-30 22:57:00 status installed ureadahead:amd64 0.100.0-19
2016-10-30 22:57:00 trigproc libc-bin:amd64 2.23-0ubuntu4 <none>
2016-10-30 22:57:00 status half-configured libc-bin:amd64 2.23-0ubuntu4
2016-10-30 22:57:00 status installed libc-bin:amd64 2.23-0ubuntu4
2016-10-30 22:57:00 startup packages configure
