Nov 13 06:39:01 localhost CRON[17471]: (root) CMD (  [ -x /usr/lib/php/sessionclean ] && /usr/lib/php/sessionclean)
Nov 13 06:46:01 localhost dhclient[877]: DHCPREQUEST of 172.31.36.132 on eth0 to 172.31.32.1 port 67 (xid=0x310e4353)
Nov 13 06:46:01 localhost dhclient[877]: DHCPACK of 172.31.36.132 from 172.31.32.1
Nov 13 06:46:01 localhost dhclient[877]: bound to 172.31.36.132 -- renewal in 1448 seconds.
Nov 13 06:47:01 localhost CRON[17528]: (root) CMD (test -x /usr/sbin/anacron || ( cd / && run-parts --report /etc/cron.weekly ))
Nov 13 06:59:24 localhost systemd[1]: Starting Daily apt activities...
Nov 13 06:59:28 localhost systemd[1]: Started Daily apt activities.
Nov 13 06:59:28 localhost systemd[1]: apt-daily.timer: Adding 4h 47min 38.088363s random time.
Nov 13 06:59:28 localhost systemd[1]: apt-daily.timer: Adding 11h 21min 8.559771s random time.
Nov 13 07:09:01 localhost CRON[17890]: (root) CMD (  [ -x /usr/lib/php/sessionclean ] && /usr/lib/php/sessionclean)
Nov 13 07:10:09 localhost dhclient[877]: DHCPREQUEST of 172.31.36.132 on eth0 to 172.31.32.1 port 67 (xid=0x310e4353)
Nov 13 07:10:09 localhost dhclient[877]: DHCPACK of 172.31.36.132 from 172.31.32.1
Nov 13 07:10:09 localhost dhclient[877]: bound to 172.31.36.132 -- renewal in 1462 seconds.
Nov 13 07:17:01 localhost CRON[17949]: (root) CMD (   cd / && run-parts --report /etc/cron.hourly)
Nov 13 07:34:31 localhost dhclient[877]: DHCPREQUEST of 172.31.36.132 on eth0 to 172.31.32.1 port 67 (xid=0x310e4353)
Nov 13 07:34:31 localhost dhclient[877]: DHCPACK of 172.31.36.132 from 172.31.32.1
Nov 13 07:34:31 localhost dhclient[877]: bound to 172.31.36.132 -- renewal in 1395 seconds.
Nov 13 07:39:01 localhost CRON[17967]: (root) CMD (  [ -x /usr/lib/php/sessionclean ] && /usr/lib/php/sessionclean)
Nov 13 07:57:46 localhost dhclient[877]: DHCPREQUEST of 172.31.36.132 on eth0 to 172.31.32.1 port 67 (xid=0x310e4353)
Nov 13 07:57:46 localhost dhclient[877]: DHCPACK of 172.31.36.132 from 172.31.32.1
Nov 13 07:57:46 localhost dhclient[877]: bound to 172.31.36.132 -- renewal in 1776 seconds.
Nov 13 08:09:01 localhost CRON[18024]: (root) CMD (  [ -x /usr/lib/php/sessionclean ] && /usr/lib/php/sessionclean)
Nov 13 08:17:01 localhost CRON[18070]: (root) CMD (   cd / && run-parts --report /etc/cron.hourly)
Nov 13 08:27:22 localhost dhclient[877]: DHCPREQUEST of 172.31.36.132 on eth0 to 172.31.32.1 port 67 (xid=0x310e4353)
Nov 13 08:27:22 localhost dhclient[877]: DHCPACK of 172.31.36.132 from 172.31.32.1
Nov 13 08:27:22 localhost dhclient[877]: bound to 172.31.36.132 -- renewal in 1598 seconds.
Nov 13 08:35:45 localhost systemd[1]: snapd.refresh.timer: Adding 4h 31min 595.668ms random time.
Nov 13 08:39:01 localhost CRON[18089]: (root) CMD (  [ -x /usr/lib/php/sessionclean ] && /usr/lib/php/sessionclean)
Nov 13 08:54:00 localhost dhclient[877]: DHCPREQUEST of 172.31.36.132 on eth0 to 172.31.32.1 port 67 (xid=0x310e4353)
Nov 13 08:54:00 localhost dhclient[877]: DHCPACK of 172.31.36.132 from 172.31.32.1
Nov 13 08:54:00 localhost dhclient[877]: bound to 172.31.36.132 -- renewal in 1451 seconds.
Nov 13 09:09:01 localhost CRON[18151]: (root) CMD (  [ -x /usr/lib/php/sessionclean ] && /usr/lib/php/sessionclean)
Nov 13 09:17:02 localhost CRON[18200]: (root) CMD (   cd / && run-parts --report /etc/cron.hourly)
Nov 13 09:18:11 localhost dhclient[877]: DHCPREQUEST of 172.31.36.132 on eth0 to 172.31.32.1 port 67 (xid=0x310e4353)
Nov 13 09:18:11 localhost dhclient[877]: DHCPACK of 172.31.36.132 from 172.31.32.1
Nov 13 09:18:11 localhost dhclient[877]: bound to 172.31.36.132 -- renewal in 1469 seconds.
Nov 13 09:39:01 localhost CRON[18230]: (root) CMD (  [ -x /usr/lib/php/sessionclean ] && /usr/lib/php/sessionclean)
Nov 13 09:42:40 localhost dhclient[877]: DHCPREQUEST of 172.31.36.132 on eth0 to 172.31.32.1 port 67 (xid=0x310e4353)
Nov 13 09:42:40 localhost dhclient[877]: DHCPACK of 172.31.36.132 from 172.31.32.1
Nov 13 09:42:40 localhost dhclient[877]: bound to 172.31.36.132 -- renewal in 1799 seconds.
Nov 13 10:09:01 localhost CRON[18308]: (root) CMD (  [ -x /usr/lib/php/sessionclean ] && /usr/lib/php/sessionclean)
Nov 13 10:12:39 localhost dhclient[877]: DHCPREQUEST of 172.31.36.132 on eth0 to 172.31.32.1 port 67 (xid=0x310e4353)
Nov 13 10:12:39 localhost dhclient[877]: DHCPACK of 172.31.36.132 from 172.31.32.1
Nov 13 10:12:39 localhost dhclient[877]: bound to 172.31.36.132 -- renewal in 1642 seconds.
Nov 13 10:17:01 localhost CRON[18367]: (root) CMD (   cd / && run-parts --report /etc/cron.hourly)
Nov 13 10:39:01 localhost CRON[18376]: (root) CMD (  [ -x /usr/lib/php/sessionclean ] && /usr/lib/php/sessionclean)
Nov 13 10:40:01 localhost dhclient[877]: DHCPREQUEST of 172.31.36.132 on eth0 to 172.31.32.1 port 67 (xid=0x310e4353)
Nov 13 10:40:01 localhost dhclient[877]: DHCPACK of 172.31.36.132 from 172.31.32.1
Nov 13 10:40:01 localhost dhclient[877]: bound to 172.31.36.132 -- renewal in 1653 seconds.
Nov 13 11:07:34 localhost dhclient[877]: DHCPREQUEST of 172.31.36.132 on eth0 to 172.31.32.1 port 67 (xid=0x310e4353)
Nov 13 11:07:34 localhost dhclient[877]: DHCPACK of 172.31.36.132 from 172.31.32.1
Nov 13 11:07:34 localhost dhclient[877]: bound to 172.31.36.132 -- renewal in 1735 seconds.
Nov 13 11:09:01 localhost CRON[18452]: (root) CMD (  [ -x /usr/lib/php/sessionclean ] && /usr/lib/php/sessionclean)
Nov 13 11:17:01 localhost CRON[18502]: (root) CMD (   cd / && run-parts --report /etc/cron.hourly)
Nov 13 11:36:29 localhost dhclient[877]: DHCPREQUEST of 172.31.36.132 on eth0 to 172.31.32.1 port 67 (xid=0x310e4353)
Nov 13 11:36:29 localhost dhclient[877]: DHCPACK of 172.31.36.132 from 172.31.32.1
Nov 13 11:36:29 localhost dhclient[877]: bound to 172.31.36.132 -- renewal in 1520 seconds.
Nov 13 11:39:01 localhost CRON[18543]: (root) CMD (  [ -x /usr/lib/php/sessionclean ] && /usr/lib/php/sessionclean)
Nov 13 12:01:49 localhost dhclient[877]: DHCPREQUEST of 172.31.36.132 on eth0 to 172.31.32.1 port 67 (xid=0x310e4353)
Nov 13 12:01:49 localhost dhclient[877]: DHCPACK of 172.31.36.132 from 172.31.32.1
Nov 13 12:01:49 localhost dhclient[877]: bound to 172.31.36.132 -- renewal in 1367 seconds.
Nov 13 12:09:01 localhost CRON[18627]: (root) CMD (  [ -x /usr/lib/php/sessionclean ] && /usr/lib/php/sessionclean)
Nov 13 12:17:01 localhost CRON[18678]: (root) CMD (   cd / && run-parts --report /etc/cron.hourly)
Nov 13 12:24:36 localhost dhclient[877]: DHCPREQUEST of 172.31.36.132 on eth0 to 172.31.32.1 port 67 (xid=0x310e4353)
Nov 13 12:24:36 localhost dhclient[877]: DHCPACK of 172.31.36.132 from 172.31.32.1
Nov 13 12:24:36 localhost dhclient[877]: bound to 172.31.36.132 -- renewal in 1748 seconds.
Nov 13 12:39:01 localhost CRON[18699]: (root) CMD (  [ -x /usr/lib/php/sessionclean ] && /usr/lib/php/sessionclean)
Nov 13 12:53:44 localhost dhclient[877]: DHCPREQUEST of 172.31.36.132 on eth0 to 172.31.32.1 port 67 (xid=0x310e4353)
Nov 13 12:53:44 localhost dhclient[877]: DHCPACK of 172.31.36.132 from 172.31.32.1
Nov 13 12:53:44 localhost dhclient[877]: bound to 172.31.36.132 -- renewal in 1390 seconds.
Nov 13 13:09:01 localhost CRON[18759]: (root) CMD (  [ -x /usr/lib/php/sessionclean ] && /usr/lib/php/sessionclean)
Nov 13 13:16:54 localhost dhclient[877]: DHCPREQUEST of 172.31.36.132 on eth0 to 172.31.32.1 port 67 (xid=0x310e4353)
Nov 13 13:16:54 localhost dhclient[877]: DHCPACK of 172.31.36.132 from 172.31.32.1
Nov 13 13:16:54 localhost dhclient[877]: bound to 172.31.36.132 -- renewal in 1557 seconds.
Nov 13 13:17:01 localhost CRON[18813]: (root) CMD (   cd / && run-parts --report /etc/cron.hourly)
Nov 13 13:39:01 localhost CRON[18818]: (root) CMD (  [ -x /usr/lib/php/sessionclean ] && /usr/lib/php/sessionclean)
Nov 13 13:42:51 localhost dhclient[877]: DHCPREQUEST of 172.31.36.132 on eth0 to 172.31.32.1 port 67 (xid=0x310e4353)
Nov 13 13:42:51 localhost dhclient[877]: DHCPACK of 172.31.36.132 from 172.31.32.1
Nov 13 13:42:51 localhost dhclient[877]: bound to 172.31.36.132 -- renewal in 1701 seconds.
Nov 13 14:09:01 localhost CRON[18887]: (root) CMD (  [ -x /usr/lib/php/sessionclean ] && /usr/lib/php/sessionclean)
Nov 13 14:11:12 localhost dhclient[877]: DHCPREQUEST of 172.31.36.132 on eth0 to 172.31.32.1 port 67 (xid=0x310e4353)
Nov 13 14:11:12 localhost dhclient[877]: DHCPACK of 172.31.36.132 from 172.31.32.1
Nov 13 14:11:12 localhost dhclient[877]: bound to 172.31.36.132 -- renewal in 1745 seconds.
Nov 13 14:17:01 localhost CRON[18945]: (root) CMD (   cd / && run-parts --report /etc/cron.hourly)
Nov 13 14:39:01 localhost CRON[18960]: (root) CMD (  [ -x /usr/lib/php/sessionclean ] && /usr/lib/php/sessionclean)
Nov 13 14:40:18 localhost dhclient[877]: DHCPREQUEST of 172.31.36.132 on eth0 to 172.31.32.1 port 67 (xid=0x310e4353)
Nov 13 14:40:18 localhost dhclient[877]: DHCPACK of 172.31.36.132 from 172.31.32.1
Nov 13 14:40:18 localhost dhclient[877]: bound to 172.31.36.132 -- renewal in 1567 seconds.
Nov 13 14:45:01 localhost CRON[19018]: (root) CMD (   test -x /etc/cron.daily/popularity-contest && /etc/cron.daily/popularity-contest --crond)
Nov 13 15:06:25 localhost dhclient[877]: DHCPREQUEST of 172.31.36.132 on eth0 to 172.31.32.1 port 67 (xid=0x310e4353)
Nov 13 15:06:25 localhost dhclient[877]: DHCPACK of 172.31.36.132 from 172.31.32.1
Nov 13 15:06:25 localhost dhclient[877]: bound to 172.31.36.132 -- renewal in 1374 seconds.
Nov 13 15:09:01 localhost CRON[19035]: (root) CMD (  [ -x /usr/lib/php/sessionclean ] && /usr/lib/php/sessionclean)
Nov 13 15:17:01 localhost CRON[19079]: (root) CMD (   cd / && run-parts --report /etc/cron.hourly)
Nov 13 15:29:19 localhost dhclient[877]: DHCPREQUEST of 172.31.36.132 on eth0 to 172.31.32.1 port 67 (xid=0x310e4353)
Nov 13 15:29:19 localhost dhclient[877]: DHCPACK of 172.31.36.132 from 172.31.32.1
Nov 13 15:29:19 localhost dhclient[877]: bound to 172.31.36.132 -- renewal in 1654 seconds.
Nov 13 15:31:08 localhost systemd[1]: snapd.refresh.timer: Adding 5h 2min 54.199493s random time.
Nov 13 15:39:01 localhost CRON[19102]: (root) CMD (  [ -x /usr/lib/php/sessionclean ] && /usr/lib/php/sessionclean)
Nov 13 15:56:54 localhost dhclient[877]: DHCPREQUEST of 172.31.36.132 on eth0 to 172.31.32.1 port 67 (xid=0x310e4353)
Nov 13 15:56:54 localhost dhclient[877]: DHCPACK of 172.31.36.132 from 172.31.32.1
Nov 13 15:56:54 localhost dhclient[877]: bound to 172.31.36.132 -- renewal in 1761 seconds.
Nov 13 16:08:18 localhost systemd[1]: Starting Cleanup of Temporary Directories...
Nov 13 16:08:18 localhost systemd-tmpfiles[19161]: [/usr/lib/tmpfiles.d/var.conf:14] Duplicate line for path "/var/log", ignoring.
Nov 13 16:08:18 localhost systemd[1]: Started Cleanup of Temporary Directories.
Nov 13 16:09:01 localhost CRON[19167]: (root) CMD (  [ -x /usr/lib/php/sessionclean ] && /usr/lib/php/sessionclean)
Nov 13 16:17:01 localhost CRON[19211]: (root) CMD (   cd / && run-parts --report /etc/cron.hourly)
Nov 13 16:26:15 localhost dhclient[877]: DHCPREQUEST of 172.31.36.132 on eth0 to 172.31.32.1 port 67 (xid=0x310e4353)
Nov 13 16:26:15 localhost dhclient[877]: DHCPACK of 172.31.36.132 from 172.31.32.1
Nov 13 16:26:15 localhost dhclient[877]: bound to 172.31.36.132 -- renewal in 1700 seconds.
Nov 13 16:39:01 localhost CRON[19230]: (root) CMD (  [ -x /usr/lib/php/sessionclean ] && /usr/lib/php/sessionclean)
Nov 13 16:54:35 localhost dhclient[877]: DHCPREQUEST of 172.31.36.132 on eth0 to 172.31.32.1 port 67 (xid=0x310e4353)
Nov 13 16:54:35 localhost dhclient[877]: DHCPACK of 172.31.36.132 from 172.31.32.1
Nov 13 16:54:35 localhost dhclient[877]: bound to 172.31.36.132 -- renewal in 1778 seconds.
Nov 13 17:09:01 localhost CRON[19292]: (root) CMD (  [ -x /usr/lib/php/sessionclean ] && /usr/lib/php/sessionclean)
Nov 13 17:17:01 localhost CRON[19336]: (root) CMD (   cd / && run-parts --report /etc/cron.hourly)
Nov 13 17:24:13 localhost dhclient[877]: DHCPREQUEST of 172.31.36.132 on eth0 to 172.31.32.1 port 67 (xid=0x310e4353)
Nov 13 17:24:13 localhost dhclient[877]: DHCPACK of 172.31.36.132 from 172.31.32.1
Nov 13 17:24:13 localhost dhclient[877]: bound to 172.31.36.132 -- renewal in 1585 seconds.
Nov 13 17:39:01 localhost CRON[19358]: (root) CMD (  [ -x /usr/lib/php/sessionclean ] && /usr/lib/php/sessionclean)
Nov 13 17:50:38 localhost dhclient[877]: DHCPREQUEST of 172.31.36.132 on eth0 to 172.31.32.1 port 67 (xid=0x310e4353)
Nov 13 17:50:38 localhost dhclient[877]: DHCPACK of 172.31.36.132 from 172.31.32.1
Nov 13 17:50:38 localhost dhclient[877]: bound to 172.31.36.132 -- renewal in 1549 seconds.
Nov 13 18:09:01 localhost CRON[19424]: (root) CMD (  [ -x /usr/lib/php/sessionclean ] && /usr/lib/php/sessionclean)
Nov 13 18:16:27 localhost dhclient[877]: DHCPREQUEST of 172.31.36.132 on eth0 to 172.31.32.1 port 67 (xid=0x310e4353)
Nov 13 18:16:27 localhost dhclient[877]: DHCPACK of 172.31.36.132 from 172.31.32.1
Nov 13 18:16:27 localhost dhclient[877]: bound to 172.31.36.132 -- renewal in 1363 seconds.
Nov 13 18:17:01 localhost CRON[19484]: (root) CMD (   cd / && run-parts --report /etc/cron.hourly)
Nov 13 18:39:01 localhost CRON[19507]: (root) CMD (  [ -x /usr/lib/php/sessionclean ] && /usr/lib/php/sessionclean)
Nov 13 18:39:10 localhost dhclient[877]: DHCPREQUEST of 172.31.36.132 on eth0 to 172.31.32.1 port 67 (xid=0x310e4353)
Nov 13 18:39:10 localhost dhclient[877]: DHCPACK of 172.31.36.132 from 172.31.32.1
Nov 13 18:39:10 localhost dhclient[877]: bound to 172.31.36.132 -- renewal in 1502 seconds.
Nov 13 19:04:12 localhost dhclient[877]: DHCPREQUEST of 172.31.36.132 on eth0 to 172.31.32.1 port 67 (xid=0x310e4353)
Nov 13 19:04:12 localhost dhclient[877]: DHCPACK of 172.31.36.132 from 172.31.32.1
Nov 13 19:04:12 localhost dhclient[877]: bound to 172.31.36.132 -- renewal in 1712 seconds.
Nov 13 19:09:01 localhost CRON[19590]: (root) CMD (  [ -x /usr/lib/php/sessionclean ] && /usr/lib/php/sessionclean)
Nov 13 19:17:01 localhost CRON[19637]: (root) CMD (   cd / && run-parts --report /etc/cron.hourly)
Nov 13 19:32:44 localhost dhclient[877]: DHCPREQUEST of 172.31.36.132 on eth0 to 172.31.32.1 port 67 (xid=0x310e4353)
Nov 13 19:32:44 localhost dhclient[877]: DHCPACK of 172.31.36.132 from 172.31.32.1
Nov 13 19:32:44 localhost dhclient[877]: bound to 172.31.36.132 -- renewal in 1767 seconds.
Nov 13 19:39:01 localhost CRON[19695]: (root) CMD (  [ -x /usr/lib/php/sessionclean ] && /usr/lib/php/sessionclean)
Nov 13 20:02:11 localhost dhclient[877]: DHCPREQUEST of 172.31.36.132 on eth0 to 172.31.32.1 port 67 (xid=0x310e4353)
Nov 13 20:02:11 localhost dhclient[877]: DHCPACK of 172.31.36.132 from 172.31.32.1
Nov 13 20:02:11 localhost dhclient[877]: bound to 172.31.36.132 -- renewal in 1386 seconds.
Nov 13 20:09:01 localhost CRON[19856]: (root) CMD (  [ -x /usr/lib/php/sessionclean ] && /usr/lib/php/sessionclean)
Nov 13 20:17:02 localhost CRON[19996]: (root) CMD (   cd / && run-parts --report /etc/cron.hourly)
Nov 13 20:25:17 localhost dhclient[877]: DHCPREQUEST of 172.31.36.132 on eth0 to 172.31.32.1 port 67 (xid=0x310e4353)
Nov 13 20:25:17 localhost dhclient[877]: DHCPACK of 172.31.36.132 from 172.31.32.1
Nov 13 20:25:17 localhost dhclient[877]: bound to 172.31.36.132 -- renewal in 1568 seconds.
Nov 13 20:39:01 localhost CRON[20323]: (root) CMD (  [ -x /usr/lib/php/sessionclean ] && /usr/lib/php/sessionclean)
Nov 13 20:51:25 localhost dhclient[877]: DHCPREQUEST of 172.31.36.132 on eth0 to 172.31.32.1 port 67 (xid=0x310e4353)
Nov 13 20:51:25 localhost dhclient[877]: DHCPACK of 172.31.36.132 from 172.31.32.1
Nov 13 20:51:25 localhost dhclient[877]: bound to 172.31.36.132 -- renewal in 1489 seconds.
Nov 13 21:09:01 localhost CRON[20658]: (root) CMD (  [ -x /usr/lib/php/sessionclean ] && /usr/lib/php/sessionclean)
Nov 13 21:16:14 localhost dhclient[877]: DHCPREQUEST of 172.31.36.132 on eth0 to 172.31.32.1 port 67 (xid=0x310e4353)
Nov 13 21:16:14 localhost dhclient[877]: DHCPACK of 172.31.36.132 from 172.31.32.1
Nov 13 21:16:14 localhost dhclient[877]: bound to 172.31.36.132 -- renewal in 1678 seconds.
Nov 13 21:17:01 localhost CRON[20720]: (root) CMD (   cd / && run-parts --report /etc/cron.hourly)
Nov 13 21:39:01 localhost CRON[20734]: (root) CMD (  [ -x /usr/lib/php/sessionclean ] && /usr/lib/php/sessionclean)
Nov 13 21:44:12 localhost dhclient[877]: DHCPREQUEST of 172.31.36.132 on eth0 to 172.31.32.1 port 67 (xid=0x310e4353)
Nov 13 21:44:12 localhost dhclient[877]: DHCPACK of 172.31.36.132 from 172.31.32.1
Nov 13 21:44:12 localhost dhclient[877]: bound to 172.31.36.132 -- renewal in 1593 seconds.
Nov 13 22:02:56 localhost systemd[1]: snapd.refresh.timer: Adding 1h 22min 54.582067s random time.
Nov 13 22:09:01 localhost CRON[20800]: (root) CMD (  [ -x /usr/lib/php/sessionclean ] && /usr/lib/php/sessionclean)
Nov 13 22:10:45 localhost dhclient[877]: DHCPREQUEST of 172.31.36.132 on eth0 to 172.31.32.1 port 67 (xid=0x310e4353)
Nov 13 22:10:45 localhost dhclient[877]: DHCPACK of 172.31.36.132 from 172.31.32.1
Nov 13 22:10:45 localhost dhclient[877]: bound to 172.31.36.132 -- renewal in 1515 seconds.
Nov 13 22:17:01 localhost CRON[20861]: (root) CMD (   cd / && run-parts --report /etc/cron.hourly)
Nov 13 22:36:01 localhost dhclient[877]: DHCPREQUEST of 172.31.36.132 on eth0 to 172.31.32.1 port 67 (xid=0x310e4353)
Nov 13 22:36:01 localhost dhclient[877]: DHCPACK of 172.31.36.132 from 172.31.32.1
Nov 13 22:36:01 localhost dhclient[877]: bound to 172.31.36.132 -- renewal in 1525 seconds.
Nov 13 22:39:01 localhost CRON[20891]: (root) CMD (  [ -x /usr/lib/php/sessionclean ] && /usr/lib/php/sessionclean)
Nov 13 23:01:26 localhost dhclient[877]: DHCPREQUEST of 172.31.36.132 on eth0 to 172.31.32.1 port 67 (xid=0x310e4353)
Nov 13 23:01:26 localhost dhclient[877]: DHCPACK of 172.31.36.132 from 172.31.32.1
Nov 13 23:01:26 localhost dhclient[877]: bound to 172.31.36.132 -- renewal in 1727 seconds.
Nov 13 23:09:01 localhost CRON[20995]: (root) CMD (  [ -x /usr/lib/php/sessionclean ] && /usr/lib/php/sessionclean)
Nov 13 23:17:01 localhost CRON[21048]: (root) CMD (   cd / && run-parts --report /etc/cron.hourly)
Nov 13 23:30:13 localhost dhclient[877]: DHCPREQUEST of 172.31.36.132 on eth0 to 172.31.32.1 port 67 (xid=0x310e4353)
Nov 13 23:30:13 localhost dhclient[877]: DHCPACK of 172.31.36.132 from 172.31.32.1
Nov 13 23:30:13 localhost dhclient[877]: bound to 172.31.36.132 -- renewal in 1668 seconds.
Nov 13 23:39:01 localhost CRON[21076]: (root) CMD (  [ -x /usr/lib/php/sessionclean ] && /usr/lib/php/sessionclean)
Nov 13 23:58:01 localhost dhclient[877]: DHCPREQUEST of 172.31.36.132 on eth0 to 172.31.32.1 port 67 (xid=0x310e4353)
Nov 13 23:58:01 localhost dhclient[877]: DHCPACK of 172.31.36.132 from 172.31.32.1
Nov 13 23:58:01 localhost dhclient[877]: bound to 172.31.36.132 -- renewal in 1623 seconds.
Nov 14 00:09:01 localhost CRON[21182]: (root) CMD (  [ -x /usr/lib/php/sessionclean ] && /usr/lib/php/sessionclean)
Nov 14 00:17:01 localhost CRON[21241]: (root) CMD (   cd / && run-parts --report /etc/cron.hourly)
Nov 14 00:22:56 localhost systemd[1]: snapd.refresh.timer: Adding 2h 7min 28.378191s random time.
Nov 14 00:25:04 localhost dhclient[877]: DHCPREQUEST of 172.31.36.132 on eth0 to 172.31.32.1 port 67 (xid=0x310e4353)
Nov 14 00:25:04 localhost dhclient[877]: DHCPACK of 172.31.36.132 from 172.31.32.1
Nov 14 00:25:04 localhost dhclient[877]: bound to 172.31.36.132 -- renewal in 1442 seconds.
Nov 14 00:39:01 localhost CRON[21274]: (root) CMD (  [ -x /usr/lib/php/sessionclean ] && /usr/lib/php/sessionclean)
Nov 14 00:49:06 localhost dhclient[877]: DHCPREQUEST of 172.31.36.132 on eth0 to 172.31.32.1 port 67 (xid=0x310e4353)
Nov 14 00:49:06 localhost dhclient[877]: DHCPACK of 172.31.36.132 from 172.31.32.1
Nov 14 00:49:06 localhost dhclient[877]: bound to 172.31.36.132 -- renewal in 1494 seconds.
Nov 14 00:58:08 localhost systemd[1]: Created slice User Slice of ubuntu.
Nov 14 00:58:08 localhost systemd[1]: Starting User Manager for UID 1000...
Nov 14 00:58:08 localhost systemd[1]: Started Session 259 of user ubuntu.
Nov 14 00:58:08 localhost systemd[21371]: Reached target Timers.
Nov 14 00:58:08 localhost systemd[21371]: Reached target Sockets.
Nov 14 00:58:08 localhost systemd[21371]: Reached target Paths.
Nov 14 00:58:08 localhost systemd[21371]: Reached target Basic System.
Nov 14 00:58:08 localhost systemd[21371]: Reached target Default.
Nov 14 00:58:08 localhost systemd[21371]: Startup finished in 21ms.
Nov 14 00:58:08 localhost systemd[1]: Started User Manager for UID 1000.
Nov 14 00:59:42 localhost systemd[1]: Stopping User Manager for UID 1000...
Nov 14 00:59:42 localhost systemd[21371]: Stopped target Default.
Nov 14 00:59:42 localhost systemd[21371]: Stopped target Basic System.
Nov 14 00:59:42 localhost systemd[21371]: Stopped target Sockets.
Nov 14 00:59:42 localhost systemd[21371]: Stopped target Paths.
Nov 14 00:59:42 localhost systemd[21371]: Stopped target Timers.
Nov 14 00:59:42 localhost systemd[21371]: Reached target Shutdown.
Nov 14 00:59:42 localhost systemd[21371]: Starting Exit the Session...
Nov 14 00:59:42 localhost systemd[21371]: Received SIGRTMIN+24 from PID 21615 (kill).
Nov 14 00:59:42 localhost systemd[1]: Stopped User Manager for UID 1000.
Nov 14 00:59:42 localhost systemd[1]: Removed slice User Slice of ubuntu.
Nov 14 01:09:01 localhost CRON[21631]: (root) CMD (  [ -x /usr/lib/php/sessionclean ] && /usr/lib/php/sessionclean)
Nov 14 01:14:00 localhost dhclient[877]: DHCPREQUEST of 172.31.36.132 on eth0 to 172.31.32.1 port 67 (xid=0x310e4353)
Nov 14 01:14:00 localhost dhclient[877]: DHCPACK of 172.31.36.132 from 172.31.32.1
Nov 14 01:14:00 localhost dhclient[877]: bound to 172.31.36.132 -- renewal in 1515 seconds.
Nov 14 01:17:01 localhost CRON[21692]: (root) CMD (   cd / && run-parts --report /etc/cron.hourly)
Nov 14 01:39:01 localhost CRON[21723]: (root) CMD (  [ -x /usr/lib/php/sessionclean ] && /usr/lib/php/sessionclean)
Nov 14 01:39:15 localhost dhclient[877]: DHCPREQUEST of 172.31.36.132 on eth0 to 172.31.32.1 port 67 (xid=0x310e4353)
Nov 14 01:39:15 localhost dhclient[877]: DHCPACK of 172.31.36.132 from 172.31.32.1
Nov 14 01:39:15 localhost dhclient[877]: bound to 172.31.36.132 -- renewal in 1503 seconds.
Nov 14 02:04:18 localhost dhclient[877]: DHCPREQUEST of 172.31.36.132 on eth0 to 172.31.32.1 port 67 (xid=0x310e4353)
Nov 14 02:04:18 localhost dhclient[877]: DHCPACK of 172.31.36.132 from 172.31.32.1
Nov 14 02:04:18 localhost dhclient[877]: bound to 172.31.36.132 -- renewal in 1388 seconds.
Nov 14 02:09:01 localhost CRON[21810]: (root) CMD (  [ -x /usr/lib/php/sessionclean ] && /usr/lib/php/sessionclean)
Nov 14 02:17:01 localhost CRON[21859]: (root) CMD (   cd / && run-parts --report /etc/cron.hourly)
Nov 14 02:27:26 localhost dhclient[877]: DHCPREQUEST of 172.31.36.132 on eth0 to 172.31.32.1 port 67 (xid=0x310e4353)
Nov 14 02:27:26 localhost dhclient[877]: DHCPACK of 172.31.36.132 from 172.31.32.1
Nov 14 02:27:26 localhost dhclient[877]: bound to 172.31.36.132 -- renewal in 1644 seconds.
Nov 14 02:39:01 localhost CRON[21925]: (root) CMD (  [ -x /usr/lib/php/sessionclean ] && /usr/lib/php/sessionclean)
Nov 14 02:54:50 localhost dhclient[877]: DHCPREQUEST of 172.31.36.132 on eth0 to 172.31.32.1 port 67 (xid=0x310e4353)
Nov 14 02:54:50 localhost dhclient[877]: DHCPACK of 172.31.36.132 from 172.31.32.1
Nov 14 02:54:50 localhost dhclient[877]: bound to 172.31.36.132 -- renewal in 1575 seconds.
Nov 14 03:09:01 localhost CRON[22007]: (root) CMD (  [ -x /usr/lib/php/sessionclean ] && /usr/lib/php/sessionclean)
Nov 14 03:17:01 localhost CRON[22057]: (root) CMD (   cd / && run-parts --report /etc/cron.hourly)
Nov 14 03:21:05 localhost dhclient[877]: DHCPREQUEST of 172.31.36.132 on eth0 to 172.31.32.1 port 67 (xid=0x310e4353)
Nov 14 03:21:05 localhost dhclient[877]: DHCPACK of 172.31.36.132 from 172.31.32.1
Nov 14 03:21:05 localhost dhclient[877]: bound to 172.31.36.132 -- renewal in 1532 seconds.
Nov 14 03:39:01 localhost CRON[22086]: (root) CMD (  [ -x /usr/lib/php/sessionclean ] && /usr/lib/php/sessionclean)
Nov 14 03:46:37 localhost dhclient[877]: DHCPREQUEST of 172.31.36.132 on eth0 to 172.31.32.1 port 67 (xid=0x310e4353)
Nov 14 03:46:37 localhost dhclient[877]: DHCPACK of 172.31.36.132 from 172.31.32.1
Nov 14 03:46:37 localhost dhclient[877]: bound to 172.31.36.132 -- renewal in 1441 seconds.
Nov 14 04:09:01 localhost CRON[22149]: (root) CMD (  [ -x /usr/lib/php/sessionclean ] && /usr/lib/php/sessionclean)
Nov 14 04:10:38 localhost dhclient[877]: DHCPREQUEST of 172.31.36.132 on eth0 to 172.31.32.1 port 67 (xid=0x310e4353)
Nov 14 04:10:38 localhost dhclient[877]: DHCPACK of 172.31.36.132 from 172.31.32.1
Nov 14 04:10:38 localhost dhclient[877]: bound to 172.31.36.132 -- renewal in 1519 seconds.
Nov 14 04:17:01 localhost CRON[22246]: (root) CMD (   cd / && run-parts --report /etc/cron.hourly)
Nov 14 04:35:57 localhost dhclient[877]: DHCPREQUEST of 172.31.36.132 on eth0 to 172.31.32.1 port 67 (xid=0x310e4353)
Nov 14 04:35:57 localhost dhclient[877]: DHCPACK of 172.31.36.132 from 172.31.32.1
Nov 14 04:35:57 localhost dhclient[877]: bound to 172.31.36.132 -- renewal in 1772 seconds.
Nov 14 04:39:01 localhost CRON[22272]: (root) CMD (  [ -x /usr/lib/php/sessionclean ] && /usr/lib/php/sessionclean)
Nov 14 05:05:29 localhost dhclient[877]: DHCPREQUEST of 172.31.36.132 on eth0 to 172.31.32.1 port 67 (xid=0x310e4353)
Nov 14 05:05:29 localhost dhclient[877]: DHCPACK of 172.31.36.132 from 172.31.32.1
Nov 14 05:05:29 localhost dhclient[877]: bound to 172.31.36.132 -- renewal in 1618 seconds.
Nov 14 05:09:01 localhost CRON[22372]: (root) CMD (  [ -x /usr/lib/php/sessionclean ] && /usr/lib/php/sessionclean)
Nov 14 05:17:01 localhost CRON[22416]: (root) CMD (   cd / && run-parts --report /etc/cron.hourly)
Nov 14 05:21:13 localhost systemd[1]: Starting Daily apt activities...
Nov 14 05:21:15 localhost systemd[1]: Started Daily apt activities.
Nov 14 05:21:15 localhost systemd[1]: apt-daily.timer: Adding 8h 59min 22.396376s random time.
Nov 14 05:21:15 localhost systemd[1]: apt-daily.timer: Adding 5h 32min 5.324412s random time.
Nov 14 05:32:27 localhost dhclient[877]: DHCPREQUEST of 172.31.36.132 on eth0 to 172.31.32.1 port 67 (xid=0x310e4353)
Nov 14 05:32:27 localhost dhclient[877]: DHCPACK of 172.31.36.132 from 172.31.32.1
Nov 14 05:32:27 localhost dhclient[877]: bound to 172.31.36.132 -- renewal in 1452 seconds.
Nov 14 05:39:01 localhost CRON[22758]: (root) CMD (  [ -x /usr/lib/php/sessionclean ] && /usr/lib/php/sessionclean)
Nov 14 05:56:39 localhost dhclient[877]: DHCPREQUEST of 172.31.36.132 on eth0 to 172.31.32.1 port 67 (xid=0x310e4353)
Nov 14 05:56:39 localhost dhclient[877]: DHCPACK of 172.31.36.132 from 172.31.32.1
Nov 14 05:56:39 localhost dhclient[877]: bound to 172.31.36.132 -- renewal in 1590 seconds.
Nov 14 06:09:01 localhost CRON[22826]: (root) CMD (  [ -x /usr/lib/php/sessionclean ] && /usr/lib/php/sessionclean)
Nov 14 06:17:01 localhost CRON[22870]: (root) CMD (   cd / && run-parts --report /etc/cron.hourly)
Nov 14 06:23:09 localhost dhclient[877]: DHCPREQUEST of 172.31.36.132 on eth0 to 172.31.32.1 port 67 (xid=0x310e4353)
Nov 14 06:23:09 localhost dhclient[877]: DHCPACK of 172.31.36.132 from 172.31.32.1
Nov 14 06:23:09 localhost dhclient[877]: bound to 172.31.36.132 -- renewal in 1574 seconds.
Nov 14 06:25:01 localhost CRON[22908]: (root) CMD (test -x /usr/sbin/anacron || ( cd / && run-parts --report /etc/cron.daily ))
